%YAML 1.1
%TAG !u! tag:unity3d.com,2011:
--- !u!29 &1
OcclusionCullingSettings:
  m_ObjectHideFlags: 0
  serializedVersion: 2
  m_OcclusionBakeSettings:
    smallestOccluder: 5
    smallestHole: 0.25
    backfaceThreshold: 100
  m_SceneGUID: 00000000000000000000000000000000
  m_OcclusionCullingData: {fileID: 0}
--- !u!104 &2
RenderSettings:
  m_ObjectHideFlags: 0
  serializedVersion: 9
  m_Fog: 0
  m_FogColor: {r: 0.5, g: 0.5, b: 0.5, a: 1}
  m_FogMode: 3
  m_FogDensity: 0.01
  m_LinearFogStart: 0
  m_LinearFogEnd: 300
  m_AmbientSkyColor: {r: 0.212, g: 0.227, b: 0.259, a: 1}
  m_AmbientEquatorColor: {r: 0.114, g: 0.125, b: 0.133, a: 1}
  m_AmbientGroundColor: {r: 0.047, g: 0.043, b: 0.035, a: 1}
  m_AmbientIntensity: 1
  m_AmbientMode: 3
  m_SubtractiveShadowColor: {r: 0.42, g: 0.478, b: 0.627, a: 1}
  m_SkyboxMaterial: {fileID: 0}
  m_HaloStrength: 0.5
  m_FlareStrength: 1
  m_FlareFadeSpeed: 3
  m_HaloTexture: {fileID: 0}
  m_SpotCookie: {fileID: 10001, guid: 0000000000000000e000000000000000, type: 0}
  m_DefaultReflectionMode: 0
  m_DefaultReflectionResolution: 128
  m_ReflectionBounces: 1
  m_ReflectionIntensity: 1
  m_CustomReflection: {fileID: 0}
  m_Sun: {fileID: 0}
  m_IndirectSpecularColor: {r: 0, g: 0, b: 0, a: 1}
  m_UseRadianceAmbientProbe: 0
--- !u!157 &3
LightmapSettings:
  m_ObjectHideFlags: 0
  serializedVersion: 11
  m_GIWorkflowMode: 1
  m_GISettings:
    serializedVersion: 2
    m_BounceScale: 1
    m_IndirectOutputScale: 1
    m_AlbedoBoost: 1
    m_EnvironmentLightingMode: 0
    m_EnableBakedLightmaps: 0
    m_EnableRealtimeLightmaps: 0
  m_LightmapEditorSettings:
    serializedVersion: 10
    m_Resolution: 2
    m_BakeResolution: 40
    m_AtlasSize: 1024
    m_AO: 0
    m_AOMaxDistance: 1
    m_CompAOExponent: 1
    m_CompAOExponentDirect: 0
    m_Padding: 2
    m_LightmapParameters: {fileID: 0}
    m_LightmapsBakeMode: 1
    m_TextureCompression: 1
    m_FinalGather: 0
    m_FinalGatherFiltering: 1
    m_FinalGatherRayCount: 256
    m_ReflectionCompression: 2
    m_MixedBakeMode: 2
    m_BakeBackend: 0
    m_PVRSampling: 1
    m_PVRDirectSampleCount: 32
    m_PVRSampleCount: 500
    m_PVRBounces: 2
    m_PVRFilterTypeDirect: 0
    m_PVRFilterTypeIndirect: 0
    m_PVRFilterTypeAO: 0
    m_PVRFilteringMode: 1
    m_PVRCulling: 1
    m_PVRFilteringGaussRadiusDirect: 1
    m_PVRFilteringGaussRadiusIndirect: 5
    m_PVRFilteringGaussRadiusAO: 2
    m_PVRFilteringAtrousPositionSigmaDirect: 0.5
    m_PVRFilteringAtrousPositionSigmaIndirect: 2
    m_PVRFilteringAtrousPositionSigmaAO: 1
    m_ShowResolutionOverlay: 1
  m_LightingDataAsset: {fileID: 0}
  m_UseShadowmask: 1
--- !u!196 &4
NavMeshSettings:
  serializedVersion: 2
  m_ObjectHideFlags: 0
  m_BuildSettings:
    serializedVersion: 2
    agentTypeID: 0
    agentRadius: 0.5
    agentHeight: 2
    agentSlope: 45
    agentClimb: 0.4
    ledgeDropHeight: 0
    maxJumpAcrossDistance: 0
    minRegionArea: 2
    manualCellSize: 0
    cellSize: 0.16666667
    manualTileSize: 0
    tileSize: 256
    accuratePlacement: 0
    debug:
      m_Flags: 0
  m_NavMeshData: {fileID: 0}
--- !u!1001 &98839309
PrefabInstance:
  m_ObjectHideFlags: 0
  serializedVersion: 2
  m_Modification:
    m_TransformParent: {fileID: 0}
    m_Modifications:
    - target: {fileID: 5390498342531988462, guid: 749c8060be6fa3d498687104d098daff,
        type: 3}
      propertyPath: m_Name
      value: Loki
      objectReference: {fileID: 0}
    - target: {fileID: 4105037647909379618, guid: 749c8060be6fa3d498687104d098daff,
        type: 3}
      propertyPath: m_LocalPosition.x
      value: -6.87
      objectReference: {fileID: 0}
    - target: {fileID: 4105037647909379618, guid: 749c8060be6fa3d498687104d098daff,
        type: 3}
      propertyPath: m_LocalPosition.y
      value: -2.99
      objectReference: {fileID: 0}
    - target: {fileID: 4105037647909379618, guid: 749c8060be6fa3d498687104d098daff,
        type: 3}
      propertyPath: m_LocalPosition.z
      value: -0.07977189
      objectReference: {fileID: 0}
    - target: {fileID: 4105037647909379618, guid: 749c8060be6fa3d498687104d098daff,
        type: 3}
      propertyPath: m_LocalRotation.x
      value: 0
      objectReference: {fileID: 0}
    - target: {fileID: 4105037647909379618, guid: 749c8060be6fa3d498687104d098daff,
        type: 3}
      propertyPath: m_LocalRotation.y
      value: 0
      objectReference: {fileID: 0}
    - target: {fileID: 4105037647909379618, guid: 749c8060be6fa3d498687104d098daff,
        type: 3}
      propertyPath: m_LocalRotation.z
      value: 0
      objectReference: {fileID: 0}
    - target: {fileID: 4105037647909379618, guid: 749c8060be6fa3d498687104d098daff,
        type: 3}
      propertyPath: m_LocalRotation.w
      value: 1
      objectReference: {fileID: 0}
    - target: {fileID: 4105037647909379618, guid: 749c8060be6fa3d498687104d098daff,
        type: 3}
      propertyPath: m_RootOrder
      value: 6
      objectReference: {fileID: 0}
    - target: {fileID: 4105037647909379618, guid: 749c8060be6fa3d498687104d098daff,
        type: 3}
      propertyPath: m_LocalEulerAnglesHint.x
      value: 0
      objectReference: {fileID: 0}
    - target: {fileID: 4105037647909379618, guid: 749c8060be6fa3d498687104d098daff,
        type: 3}
      propertyPath: m_LocalEulerAnglesHint.y
      value: 0
      objectReference: {fileID: 0}
    - target: {fileID: 4105037647909379618, guid: 749c8060be6fa3d498687104d098daff,
        type: 3}
      propertyPath: m_LocalEulerAnglesHint.z
      value: 0
      objectReference: {fileID: 0}
    - target: {fileID: 4105037647909379618, guid: 749c8060be6fa3d498687104d098daff,
        type: 3}
      propertyPath: m_LocalScale.x
      value: 0.4
      objectReference: {fileID: 0}
    - target: {fileID: 4105037647909379618, guid: 749c8060be6fa3d498687104d098daff,
        type: 3}
      propertyPath: m_LocalScale.y
      value: 0.4
      objectReference: {fileID: 0}
    m_RemovedComponents: []
  m_SourcePrefab: {fileID: 100100000, guid: 749c8060be6fa3d498687104d098daff, type: 3}
--- !u!1001 &129473021
PrefabInstance:
  m_ObjectHideFlags: 0
  serializedVersion: 2
  m_Modification:
    m_TransformParent: {fileID: 0}
    m_Modifications:
    - target: {fileID: 5390498342531988462, guid: 749c8060be6fa3d498687104d098daff,
        type: 3}
      propertyPath: m_Name
      value: Narfi
      objectReference: {fileID: 0}
    - target: {fileID: 4105037647909379618, guid: 749c8060be6fa3d498687104d098daff,
        type: 3}
      propertyPath: m_LocalPosition.x
      value: -11.8
      objectReference: {fileID: 0}
    - target: {fileID: 4105037647909379618, guid: 749c8060be6fa3d498687104d098daff,
        type: 3}
      propertyPath: m_LocalPosition.y
      value: 13.2
      objectReference: {fileID: 0}
    - target: {fileID: 4105037647909379618, guid: 749c8060be6fa3d498687104d098daff,
        type: 3}
      propertyPath: m_LocalPosition.z
      value: -0.07977189
      objectReference: {fileID: 0}
    - target: {fileID: 4105037647909379618, guid: 749c8060be6fa3d498687104d098daff,
        type: 3}
      propertyPath: m_LocalRotation.x
      value: 0
      objectReference: {fileID: 0}
    - target: {fileID: 4105037647909379618, guid: 749c8060be6fa3d498687104d098daff,
        type: 3}
      propertyPath: m_LocalRotation.y
      value: 0
      objectReference: {fileID: 0}
    - target: {fileID: 4105037647909379618, guid: 749c8060be6fa3d498687104d098daff,
        type: 3}
      propertyPath: m_LocalRotation.z
      value: 0
      objectReference: {fileID: 0}
    - target: {fileID: 4105037647909379618, guid: 749c8060be6fa3d498687104d098daff,
        type: 3}
      propertyPath: m_LocalRotation.w
      value: 1
      objectReference: {fileID: 0}
    - target: {fileID: 4105037647909379618, guid: 749c8060be6fa3d498687104d098daff,
        type: 3}
      propertyPath: m_RootOrder
      value: 8
      objectReference: {fileID: 0}
    - target: {fileID: 4105037647909379618, guid: 749c8060be6fa3d498687104d098daff,
        type: 3}
      propertyPath: m_LocalEulerAnglesHint.x
      value: 0
      objectReference: {fileID: 0}
    - target: {fileID: 4105037647909379618, guid: 749c8060be6fa3d498687104d098daff,
        type: 3}
      propertyPath: m_LocalEulerAnglesHint.y
      value: 0
      objectReference: {fileID: 0}
    - target: {fileID: 4105037647909379618, guid: 749c8060be6fa3d498687104d098daff,
        type: 3}
      propertyPath: m_LocalEulerAnglesHint.z
      value: 0
      objectReference: {fileID: 0}
    - target: {fileID: 4105037647909379618, guid: 749c8060be6fa3d498687104d098daff,
        type: 3}
      propertyPath: m_LocalScale.x
      value: 0.4
      objectReference: {fileID: 0}
    - target: {fileID: 4105037647909379618, guid: 749c8060be6fa3d498687104d098daff,
        type: 3}
      propertyPath: m_LocalScale.y
      value: 0.4
      objectReference: {fileID: 0}
    m_RemovedComponents: []
  m_SourcePrefab: {fileID: 100100000, guid: 749c8060be6fa3d498687104d098daff, type: 3}
--- !u!1 &164620185
GameObject:
  m_ObjectHideFlags: 0
  m_CorrespondingSourceObject: {fileID: 0}
  m_PrefabInstance: {fileID: 0}
  m_PrefabAsset: {fileID: 0}
  serializedVersion: 6
  m_Component:
  - component: {fileID: 164620186}
  - component: {fileID: 164620188}
  - component: {fileID: 164620187}
  m_Layer: 5
  m_Name: Text
  m_TagString: Untagged
  m_Icon: {fileID: 0}
  m_NavMeshLayer: 0
  m_StaticEditorFlags: 0
  m_IsActive: 1
--- !u!224 &164620186
RectTransform:
  m_ObjectHideFlags: 0
  m_CorrespondingSourceObject: {fileID: 0}
  m_PrefabInstance: {fileID: 0}
  m_PrefabAsset: {fileID: 0}
  m_GameObject: {fileID: 164620185}
  m_LocalRotation: {x: 0, y: 0, z: 0, w: 1}
  m_LocalPosition: {x: 0, y: 0, z: 0}
  m_LocalScale: {x: 0.8, y: 1, z: 1}
  m_Children: []
  m_Father: {fileID: 486148099}
  m_RootOrder: 1
  m_LocalEulerAnglesHint: {x: 0, y: 0, z: 0}
  m_AnchorMin: {x: 0.5, y: 0.5}
  m_AnchorMax: {x: 0.5, y: 0.5}
  m_AnchoredPosition: {x: -0, y: 21}
  m_SizeDelta: {x: 160, y: 30}
  m_Pivot: {x: 0.5, y: 0.5}
--- !u!114 &164620187
MonoBehaviour:
  m_ObjectHideFlags: 0
  m_CorrespondingSourceObject: {fileID: 0}
  m_PrefabInstance: {fileID: 0}
  m_PrefabAsset: {fileID: 0}
  m_GameObject: {fileID: 164620185}
  m_Enabled: 1
  m_EditorHideFlags: 0
  m_Script: {fileID: 708705254, guid: f70555f144d8491a825f0804e09c671c, type: 3}
  m_Name: 
  m_EditorClassIdentifier: 
  m_Material: {fileID: 0}
  m_Color: {r: 0.19607843, g: 0.19607843, b: 0.19607843, a: 1}
  m_RaycastTarget: 1
  m_OnCullStateChanged:
    m_PersistentCalls:
      m_Calls: []
    m_TypeName: UnityEngine.UI.MaskableGraphic+CullStateChangedEvent, UnityEngine.UI,
      Version=1.0.0.0, Culture=neutral, PublicKeyToken=null
  m_FontData:
    m_Font: {fileID: 12800000, guid: 43754bbbfc83703459ca0decdf0f258e, type: 3}
    m_FontSize: 15
    m_FontStyle: 0
    m_BestFit: 0
    m_MinSize: 0
    m_MaxSize: 100
    m_Alignment: 1
    m_AlignByGeometry: 0
    m_RichText: 1
    m_HorizontalOverflow: 0
    m_VerticalOverflow: 0
    m_LineSpacing: 1
  m_Text: Rocket Fuel
--- !u!222 &164620188
CanvasRenderer:
  m_ObjectHideFlags: 0
  m_CorrespondingSourceObject: {fileID: 0}
  m_PrefabInstance: {fileID: 0}
  m_PrefabAsset: {fileID: 0}
  m_GameObject: {fileID: 164620185}
  m_CullTransparentMesh: 0
--- !u!1 &350457472
GameObject:
  m_ObjectHideFlags: 0
  m_CorrespondingSourceObject: {fileID: 0}
  m_PrefabInstance: {fileID: 0}
  m_PrefabAsset: {fileID: 0}
  serializedVersion: 6
  m_Component:
  - component: {fileID: 350457474}
  - component: {fileID: 350457473}
  m_Layer: 0
  m_Name: astronomy-constellation-dark-998641
  m_TagString: Untagged
  m_Icon: {fileID: 0}
  m_NavMeshLayer: 0
  m_StaticEditorFlags: 0
  m_IsActive: 1
--- !u!212 &350457473
SpriteRenderer:
  m_ObjectHideFlags: 0
  m_CorrespondingSourceObject: {fileID: 0}
  m_PrefabInstance: {fileID: 0}
  m_PrefabAsset: {fileID: 0}
  m_GameObject: {fileID: 350457472}
  m_Enabled: 1
  m_CastShadows: 0
  m_ReceiveShadows: 0
  m_DynamicOccludee: 1
  m_MotionVectors: 1
  m_LightProbeUsage: 1
  m_ReflectionProbeUsage: 1
  m_RenderingLayerMask: 1
  m_RendererPriority: 0
  m_Materials:
  - {fileID: 10754, guid: 0000000000000000f000000000000000, type: 0}
  m_StaticBatchInfo:
    firstSubMesh: 0
    subMeshCount: 0
  m_StaticBatchRoot: {fileID: 0}
  m_ProbeAnchor: {fileID: 0}
  m_LightProbeVolumeOverride: {fileID: 0}
  m_ScaleInLightmap: 1
  m_PreserveUVs: 0
  m_IgnoreNormalsForChartDetection: 0
  m_ImportantGI: 0
  m_StitchLightmapSeams: 0
  m_SelectedEditorRenderState: 0
  m_MinimumChartSize: 4
  m_AutoUVMaxDistance: 0.5
  m_AutoUVMaxAngle: 89
  m_LightmapParameters: {fileID: 0}
  m_SortingLayerID: 0
  m_SortingLayer: 0
  m_SortingOrder: 0
  m_Sprite: {fileID: 21300000, guid: a423d5297ea63924daa8f5f7e20dcbe7, type: 3}
  m_Color: {r: 1, g: 1, b: 1, a: 1}
  m_FlipX: 0
  m_FlipY: 0
  m_DrawMode: 0
  m_Size: {x: 60, y: 40}
  m_AdaptiveModeThreshold: 0.5
  m_SpriteTileMode: 0
  m_WasSpriteAssigned: 1
  m_MaskInteraction: 0
  m_SpriteSortPoint: 0
--- !u!4 &350457474
Transform:
  m_ObjectHideFlags: 0
  m_CorrespondingSourceObject: {fileID: 0}
  m_PrefabInstance: {fileID: 0}
  m_PrefabAsset: {fileID: 0}
  m_GameObject: {fileID: 350457472}
  m_LocalRotation: {x: 0, y: 0, z: 0, w: 1}
  m_LocalPosition: {x: 0, y: 0, z: 0}
  m_LocalScale: {x: 1, y: 1, z: 1}
  m_Children: []
  m_Father: {fileID: 0}
  m_RootOrder: 4
  m_LocalEulerAnglesHint: {x: 0, y: 0, z: 0}
--- !u!1 &486148098
GameObject:
  m_ObjectHideFlags: 0
  m_CorrespondingSourceObject: {fileID: 0}
  m_PrefabInstance: {fileID: 0}
  m_PrefabAsset: {fileID: 0}
  serializedVersion: 6
  m_Component:
  - component: {fileID: 486148099}
  m_Layer: 5
  m_Name: FuelBar
  m_TagString: Untagged
  m_Icon: {fileID: 0}
  m_NavMeshLayer: 0
  m_StaticEditorFlags: 0
  m_IsActive: 1
--- !u!224 &486148099
RectTransform:
  m_ObjectHideFlags: 0
  m_CorrespondingSourceObject: {fileID: 0}
  m_PrefabInstance: {fileID: 0}
  m_PrefabAsset: {fileID: 0}
  m_GameObject: {fileID: 486148098}
  m_LocalRotation: {x: 0, y: 0, z: 0, w: 1}
  m_LocalPosition: {x: 0, y: 0, z: 0}
  m_LocalScale: {x: 1.6, y: 1, z: 1}
  m_Children:
  - {fileID: 1156345404}
  - {fileID: 164620186}
  m_Father: {fileID: 726882427}
  m_RootOrder: 1
  m_LocalEulerAnglesHint: {x: 0, y: 0, z: 0}
  m_AnchorMin: {x: 0.5, y: 0.5}
  m_AnchorMax: {x: 0.5, y: 0.5}
  m_AnchoredPosition: {x: 312, y: 221}
  m_SizeDelta: {x: 100, y: 100}
  m_Pivot: {x: 0.5, y: 0.5}
--- !u!1 &519420028
GameObject:
  m_ObjectHideFlags: 0
  m_CorrespondingSourceObject: {fileID: 0}
  m_PrefabInstance: {fileID: 0}
  m_PrefabAsset: {fileID: 0}
  serializedVersion: 6
  m_Component:
  - component: {fileID: 519420032}
  - component: {fileID: 519420031}
  - component: {fileID: 519420029}
  - component: {fileID: 519420030}
  m_Layer: 0
  m_Name: Main Camera
  m_TagString: MainCamera
  m_Icon: {fileID: 0}
  m_NavMeshLayer: 0
  m_StaticEditorFlags: 0
  m_IsActive: 1
--- !u!81 &519420029
AudioListener:
  m_ObjectHideFlags: 0
  m_CorrespondingSourceObject: {fileID: 0}
  m_PrefabInstance: {fileID: 0}
  m_PrefabAsset: {fileID: 0}
  m_GameObject: {fileID: 519420028}
  m_Enabled: 1
--- !u!114 &519420030
MonoBehaviour:
  m_ObjectHideFlags: 0
  m_CorrespondingSourceObject: {fileID: 0}
  m_PrefabInstance: {fileID: 0}
  m_PrefabAsset: {fileID: 0}
  m_GameObject: {fileID: 519420028}
  m_Enabled: 1
  m_EditorHideFlags: 0
  m_Script: {fileID: 11500000, guid: 8859e30b01dc5b243a331dbc761991c2, type: 3}
  m_Name: 
  m_EditorClassIdentifier: 
--- !u!20 &519420031
Camera:
  m_ObjectHideFlags: 0
  m_CorrespondingSourceObject: {fileID: 0}
  m_PrefabInstance: {fileID: 0}
  m_PrefabAsset: {fileID: 0}
  m_GameObject: {fileID: 519420028}
  m_Enabled: 1
  serializedVersion: 2
  m_ClearFlags: 2
  m_BackGroundColor: {r: 0.19215687, g: 0.3019608, b: 0.4745098, a: 0}
  m_projectionMatrixMode: 1
  m_SensorSize: {x: 36, y: 24}
  m_LensShift: {x: 0, y: 0}
  m_GateFitMode: 2
  m_FocalLength: 50
  m_NormalizedViewPortRect:
    serializedVersion: 2
    x: 0
    y: 0
    width: 1
    height: 1
  near clip plane: 0.3
  far clip plane: 1000
  field of view: 60
  orthographic: 1
  orthographic size: 5
  m_Depth: -1
  m_CullingMask:
    serializedVersion: 2
    m_Bits: 4294967295
  m_RenderingPath: -1
  m_TargetTexture: {fileID: 0}
  m_TargetDisplay: 0
  m_TargetEye: 0
  m_HDR: 1
  m_AllowMSAA: 0
  m_AllowDynamicResolution: 0
  m_ForceIntoRT: 0
  m_OcclusionCulling: 0
  m_StereoConvergence: 10
  m_StereoSeparation: 0.022
--- !u!4 &519420032
Transform:
  m_ObjectHideFlags: 0
  m_CorrespondingSourceObject: {fileID: 0}
  m_PrefabInstance: {fileID: 0}
  m_PrefabAsset: {fileID: 0}
  m_GameObject: {fileID: 519420028}
  m_LocalRotation: {x: 0, y: 0, z: 0, w: 1}
  m_LocalPosition: {x: 0, y: 0, z: -10}
  m_LocalScale: {x: 1, y: 1, z: 1}
  m_Children: []
  m_Father: {fileID: 0}
  m_RootOrder: 0
  m_LocalEulerAnglesHint: {x: 0, y: 0, z: 0}
--- !u!1 &535874548
GameObject:
  m_ObjectHideFlags: 0
  m_CorrespondingSourceObject: {fileID: 0}
  m_PrefabInstance: {fileID: 0}
  m_PrefabAsset: {fileID: 0}
  serializedVersion: 6
  m_Component:
  - component: {fileID: 535874551}
  - component: {fileID: 535874550}
  - component: {fileID: 535874549}
  m_Layer: 0
  m_Name: EventSystem
  m_TagString: Untagged
  m_Icon: {fileID: 0}
  m_NavMeshLayer: 0
  m_StaticEditorFlags: 0
  m_IsActive: 1
--- !u!114 &535874549
MonoBehaviour:
  m_ObjectHideFlags: 0
  m_CorrespondingSourceObject: {fileID: 0}
  m_PrefabInstance: {fileID: 0}
  m_PrefabAsset: {fileID: 0}
  m_GameObject: {fileID: 535874548}
  m_Enabled: 1
  m_EditorHideFlags: 0
  m_Script: {fileID: 1077351063, guid: f70555f144d8491a825f0804e09c671c, type: 3}
  m_Name: 
  m_EditorClassIdentifier: 
  m_HorizontalAxis: Horizontal
  m_VerticalAxis: Vertical
  m_SubmitButton: Submit
  m_CancelButton: Cancel
  m_InputActionsPerSecond: 10
  m_RepeatDelay: 0.5
  m_ForceModuleActive: 0
--- !u!114 &535874550
MonoBehaviour:
  m_ObjectHideFlags: 0
  m_CorrespondingSourceObject: {fileID: 0}
  m_PrefabInstance: {fileID: 0}
  m_PrefabAsset: {fileID: 0}
  m_GameObject: {fileID: 535874548}
  m_Enabled: 1
  m_EditorHideFlags: 0
  m_Script: {fileID: -619905303, guid: f70555f144d8491a825f0804e09c671c, type: 3}
  m_Name: 
  m_EditorClassIdentifier: 
  m_FirstSelected: {fileID: 0}
  m_sendNavigationEvents: 1
  m_DragThreshold: 10
--- !u!4 &535874551
Transform:
  m_ObjectHideFlags: 0
  m_CorrespondingSourceObject: {fileID: 0}
  m_PrefabInstance: {fileID: 0}
  m_PrefabAsset: {fileID: 0}
  m_GameObject: {fileID: 535874548}
  m_LocalRotation: {x: 0, y: 0, z: 0, w: 1}
  m_LocalPosition: {x: 0, y: 0, z: 0}
  m_LocalScale: {x: 1, y: 1, z: 1}
  m_Children: []
  m_Father: {fileID: 0}
  m_RootOrder: 3
  m_LocalEulerAnglesHint: {x: 0, y: 0, z: 0}
--- !u!1001 &564833346
PrefabInstance:
  m_ObjectHideFlags: 0
  serializedVersion: 2
  m_Modification:
    m_TransformParent: {fileID: 0}
    m_Modifications:
    - target: {fileID: 5390498342531988462, guid: 749c8060be6fa3d498687104d098daff,
        type: 3}
      propertyPath: m_Name
      value: FuelStop1
      objectReference: {fileID: 0}
    - target: {fileID: 4105037647909379618, guid: 749c8060be6fa3d498687104d098daff,
        type: 3}
      propertyPath: m_LocalPosition.x
      value: 1.9
      objectReference: {fileID: 0}
    - target: {fileID: 4105037647909379618, guid: 749c8060be6fa3d498687104d098daff,
        type: 3}
      propertyPath: m_LocalPosition.y
      value: -1.8
      objectReference: {fileID: 0}
    - target: {fileID: 4105037647909379618, guid: 749c8060be6fa3d498687104d098daff,
        type: 3}
      propertyPath: m_LocalPosition.z
      value: -0.07977189
      objectReference: {fileID: 0}
    - target: {fileID: 4105037647909379618, guid: 749c8060be6fa3d498687104d098daff,
        type: 3}
      propertyPath: m_LocalRotation.x
      value: 0
      objectReference: {fileID: 0}
    - target: {fileID: 4105037647909379618, guid: 749c8060be6fa3d498687104d098daff,
        type: 3}
      propertyPath: m_LocalRotation.y
      value: 0
      objectReference: {fileID: 0}
    - target: {fileID: 4105037647909379618, guid: 749c8060be6fa3d498687104d098daff,
        type: 3}
      propertyPath: m_LocalRotation.z
      value: 0
      objectReference: {fileID: 0}
    - target: {fileID: 4105037647909379618, guid: 749c8060be6fa3d498687104d098daff,
        type: 3}
      propertyPath: m_LocalRotation.w
      value: 1
      objectReference: {fileID: 0}
    - target: {fileID: 4105037647909379618, guid: 749c8060be6fa3d498687104d098daff,
        type: 3}
      propertyPath: m_RootOrder
      value: 21
      objectReference: {fileID: 0}
    - target: {fileID: 4105037647909379618, guid: 749c8060be6fa3d498687104d098daff,
        type: 3}
      propertyPath: m_LocalEulerAnglesHint.x
      value: 0
      objectReference: {fileID: 0}
    - target: {fileID: 4105037647909379618, guid: 749c8060be6fa3d498687104d098daff,
        type: 3}
      propertyPath: m_LocalEulerAnglesHint.y
      value: 0
      objectReference: {fileID: 0}
    - target: {fileID: 4105037647909379618, guid: 749c8060be6fa3d498687104d098daff,
        type: 3}
      propertyPath: m_LocalEulerAnglesHint.z
      value: 0
      objectReference: {fileID: 0}
    - target: {fileID: 4105037647909379618, guid: 749c8060be6fa3d498687104d098daff,
        type: 3}
      propertyPath: m_LocalScale.x
      value: 0.25
      objectReference: {fileID: 0}
    - target: {fileID: 4105037647909379618, guid: 749c8060be6fa3d498687104d098daff,
        type: 3}
      propertyPath: m_LocalScale.y
      value: 0.25
      objectReference: {fileID: 0}
    - target: {fileID: 6021934067299923636, guid: 749c8060be6fa3d498687104d098daff,
        type: 3}
      propertyPath: FuelRest
      value: 1
      objectReference: {fileID: 0}
    - target: {fileID: 7154399756466663294, guid: 749c8060be6fa3d498687104d098daff,
        type: 3}
      propertyPath: m_Color.r
      value: 0.2784314
      objectReference: {fileID: 0}
    - target: {fileID: 7154399756466663294, guid: 749c8060be6fa3d498687104d098daff,
        type: 3}
      propertyPath: m_Color.g
      value: 0.2784314
      objectReference: {fileID: 0}
    - target: {fileID: 7154399756466663294, guid: 749c8060be6fa3d498687104d098daff,
        type: 3}
      propertyPath: m_Color.b
      value: 0.2784314
      objectReference: {fileID: 0}
    m_RemovedComponents: []
  m_SourcePrefab: {fileID: 100100000, guid: 749c8060be6fa3d498687104d098daff, type: 3}
--- !u!1001 &571883464
PrefabInstance:
  m_ObjectHideFlags: 0
  serializedVersion: 2
  m_Modification:
    m_TransformParent: {fileID: 0}
    m_Modifications:
    - target: {fileID: 5390498342531988462, guid: 749c8060be6fa3d498687104d098daff,
        type: 3}
      propertyPath: m_Name
      value: 'FuelStop3 '
      objectReference: {fileID: 0}
    - target: {fileID: 4105037647909379618, guid: 749c8060be6fa3d498687104d098daff,
        type: 3}
      propertyPath: m_LocalPosition.x
      value: 15.1
      objectReference: {fileID: 0}
    - target: {fileID: 4105037647909379618, guid: 749c8060be6fa3d498687104d098daff,
        type: 3}
      propertyPath: m_LocalPosition.y
      value: -5.4
      objectReference: {fileID: 0}
    - target: {fileID: 4105037647909379618, guid: 749c8060be6fa3d498687104d098daff,
        type: 3}
      propertyPath: m_LocalPosition.z
      value: -0.07977189
      objectReference: {fileID: 0}
    - target: {fileID: 4105037647909379618, guid: 749c8060be6fa3d498687104d098daff,
        type: 3}
      propertyPath: m_LocalRotation.x
      value: 0
      objectReference: {fileID: 0}
    - target: {fileID: 4105037647909379618, guid: 749c8060be6fa3d498687104d098daff,
        type: 3}
      propertyPath: m_LocalRotation.y
      value: 0
      objectReference: {fileID: 0}
    - target: {fileID: 4105037647909379618, guid: 749c8060be6fa3d498687104d098daff,
        type: 3}
      propertyPath: m_LocalRotation.z
      value: 0
      objectReference: {fileID: 0}
    - target: {fileID: 4105037647909379618, guid: 749c8060be6fa3d498687104d098daff,
        type: 3}
      propertyPath: m_LocalRotation.w
      value: 1
      objectReference: {fileID: 0}
    - target: {fileID: 4105037647909379618, guid: 749c8060be6fa3d498687104d098daff,
        type: 3}
      propertyPath: m_RootOrder
      value: 23
      objectReference: {fileID: 0}
    - target: {fileID: 4105037647909379618, guid: 749c8060be6fa3d498687104d098daff,
        type: 3}
      propertyPath: m_LocalEulerAnglesHint.x
      value: 0
      objectReference: {fileID: 0}
    - target: {fileID: 4105037647909379618, guid: 749c8060be6fa3d498687104d098daff,
        type: 3}
      propertyPath: m_LocalEulerAnglesHint.y
      value: 0
      objectReference: {fileID: 0}
    - target: {fileID: 4105037647909379618, guid: 749c8060be6fa3d498687104d098daff,
        type: 3}
      propertyPath: m_LocalEulerAnglesHint.z
      value: 0
      objectReference: {fileID: 0}
    - target: {fileID: 4105037647909379618, guid: 749c8060be6fa3d498687104d098daff,
        type: 3}
      propertyPath: m_LocalScale.x
      value: 0.25
      objectReference: {fileID: 0}
    - target: {fileID: 4105037647909379618, guid: 749c8060be6fa3d498687104d098daff,
        type: 3}
      propertyPath: m_LocalScale.y
      value: 0.25
      objectReference: {fileID: 0}
    - target: {fileID: 6021934067299923636, guid: 749c8060be6fa3d498687104d098daff,
        type: 3}
      propertyPath: FuelRest
      value: 1
      objectReference: {fileID: 0}
    - target: {fileID: 7154399756466663294, guid: 749c8060be6fa3d498687104d098daff,
        type: 3}
      propertyPath: m_Color.r
      value: 0.2784314
      objectReference: {fileID: 0}
    - target: {fileID: 7154399756466663294, guid: 749c8060be6fa3d498687104d098daff,
        type: 3}
      propertyPath: m_Color.g
      value: 0.2784314
      objectReference: {fileID: 0}
    - target: {fileID: 7154399756466663294, guid: 749c8060be6fa3d498687104d098daff,
        type: 3}
      propertyPath: m_Color.b
      value: 0.2784314
      objectReference: {fileID: 0}
    m_RemovedComponents: []
  m_SourcePrefab: {fileID: 100100000, guid: 749c8060be6fa3d498687104d098daff, type: 3}
--- !u!1001 &673745359
PrefabInstance:
  m_ObjectHideFlags: 0
  serializedVersion: 2
  m_Modification:
    m_TransformParent: {fileID: 0}
    m_Modifications:
    - target: {fileID: 5390498342531988462, guid: 749c8060be6fa3d498687104d098daff,
        type: 3}
      propertyPath: m_Name
      value: Mjolnir
      objectReference: {fileID: 0}
    - target: {fileID: 4105037647909379618, guid: 749c8060be6fa3d498687104d098daff,
        type: 3}
      propertyPath: m_LocalPosition.x
      value: 11.73
      objectReference: {fileID: 0}
    - target: {fileID: 4105037647909379618, guid: 749c8060be6fa3d498687104d098daff,
        type: 3}
      propertyPath: m_LocalPosition.y
      value: 11.8
      objectReference: {fileID: 0}
    - target: {fileID: 4105037647909379618, guid: 749c8060be6fa3d498687104d098daff,
        type: 3}
      propertyPath: m_LocalPosition.z
      value: -0.07977189
      objectReference: {fileID: 0}
    - target: {fileID: 4105037647909379618, guid: 749c8060be6fa3d498687104d098daff,
        type: 3}
      propertyPath: m_LocalRotation.x
      value: 0
      objectReference: {fileID: 0}
    - target: {fileID: 4105037647909379618, guid: 749c8060be6fa3d498687104d098daff,
        type: 3}
      propertyPath: m_LocalRotation.y
      value: 0
      objectReference: {fileID: 0}
    - target: {fileID: 4105037647909379618, guid: 749c8060be6fa3d498687104d098daff,
        type: 3}
      propertyPath: m_LocalRotation.z
      value: 0
      objectReference: {fileID: 0}
    - target: {fileID: 4105037647909379618, guid: 749c8060be6fa3d498687104d098daff,
        type: 3}
      propertyPath: m_LocalRotation.w
      value: 1
      objectReference: {fileID: 0}
    - target: {fileID: 4105037647909379618, guid: 749c8060be6fa3d498687104d098daff,
        type: 3}
      propertyPath: m_RootOrder
      value: 10
      objectReference: {fileID: 0}
    - target: {fileID: 4105037647909379618, guid: 749c8060be6fa3d498687104d098daff,
        type: 3}
      propertyPath: m_LocalEulerAnglesHint.x
      value: 0
      objectReference: {fileID: 0}
    - target: {fileID: 4105037647909379618, guid: 749c8060be6fa3d498687104d098daff,
        type: 3}
      propertyPath: m_LocalEulerAnglesHint.y
      value: 0
      objectReference: {fileID: 0}
    - target: {fileID: 4105037647909379618, guid: 749c8060be6fa3d498687104d098daff,
        type: 3}
      propertyPath: m_LocalEulerAnglesHint.z
      value: 0
      objectReference: {fileID: 0}
    - target: {fileID: 4105037647909379618, guid: 749c8060be6fa3d498687104d098daff,
        type: 3}
      propertyPath: m_LocalScale.x
      value: 0.4
      objectReference: {fileID: 0}
    - target: {fileID: 4105037647909379618, guid: 749c8060be6fa3d498687104d098daff,
        type: 3}
      propertyPath: m_LocalScale.y
      value: 0.4
      objectReference: {fileID: 0}
    m_RemovedComponents: []
  m_SourcePrefab: {fileID: 100100000, guid: 749c8060be6fa3d498687104d098daff, type: 3}
--- !u!1001 &702180538
PrefabInstance:
  m_ObjectHideFlags: 0
  serializedVersion: 2
  m_Modification:
    m_TransformParent: {fileID: 0}
    m_Modifications:
    - target: {fileID: 5390498342531988462, guid: 749c8060be6fa3d498687104d098daff,
        type: 3}
      propertyPath: m_Name
      value: Ottar
      objectReference: {fileID: 0}
    - target: {fileID: 4105037647909379618, guid: 749c8060be6fa3d498687104d098daff,
        type: 3}
      propertyPath: m_LocalPosition.x
      value: -20.64
      objectReference: {fileID: 0}
    - target: {fileID: 4105037647909379618, guid: 749c8060be6fa3d498687104d098daff,
        type: 3}
      propertyPath: m_LocalPosition.y
      value: 9.15
      objectReference: {fileID: 0}
    - target: {fileID: 4105037647909379618, guid: 749c8060be6fa3d498687104d098daff,
        type: 3}
      propertyPath: m_LocalPosition.z
      value: -0.07977189
      objectReference: {fileID: 0}
    - target: {fileID: 4105037647909379618, guid: 749c8060be6fa3d498687104d098daff,
        type: 3}
      propertyPath: m_LocalRotation.x
      value: 0
      objectReference: {fileID: 0}
    - target: {fileID: 4105037647909379618, guid: 749c8060be6fa3d498687104d098daff,
        type: 3}
      propertyPath: m_LocalRotation.y
      value: 0
      objectReference: {fileID: 0}
    - target: {fileID: 4105037647909379618, guid: 749c8060be6fa3d498687104d098daff,
        type: 3}
      propertyPath: m_LocalRotation.z
      value: 0
      objectReference: {fileID: 0}
    - target: {fileID: 4105037647909379618, guid: 749c8060be6fa3d498687104d098daff,
        type: 3}
      propertyPath: m_LocalRotation.w
      value: 1
      objectReference: {fileID: 0}
    - target: {fileID: 4105037647909379618, guid: 749c8060be6fa3d498687104d098daff,
        type: 3}
      propertyPath: m_RootOrder
      value: 16
      objectReference: {fileID: 0}
    - target: {fileID: 4105037647909379618, guid: 749c8060be6fa3d498687104d098daff,
        type: 3}
      propertyPath: m_LocalEulerAnglesHint.x
      value: 0
      objectReference: {fileID: 0}
    - target: {fileID: 4105037647909379618, guid: 749c8060be6fa3d498687104d098daff,
        type: 3}
      propertyPath: m_LocalEulerAnglesHint.y
      value: 0
      objectReference: {fileID: 0}
    - target: {fileID: 4105037647909379618, guid: 749c8060be6fa3d498687104d098daff,
        type: 3}
      propertyPath: m_LocalEulerAnglesHint.z
      value: 0
      objectReference: {fileID: 0}
    - target: {fileID: 4105037647909379618, guid: 749c8060be6fa3d498687104d098daff,
        type: 3}
      propertyPath: m_LocalScale.x
      value: 0.4
      objectReference: {fileID: 0}
    - target: {fileID: 4105037647909379618, guid: 749c8060be6fa3d498687104d098daff,
        type: 3}
      propertyPath: m_LocalScale.y
      value: 0.4
      objectReference: {fileID: 0}
    m_RemovedComponents: []
  m_SourcePrefab: {fileID: 100100000, guid: 749c8060be6fa3d498687104d098daff, type: 3}
--- !u!1 &726882423
GameObject:
  m_ObjectHideFlags: 0
  m_CorrespondingSourceObject: {fileID: 0}
  m_PrefabInstance: {fileID: 0}
  m_PrefabAsset: {fileID: 0}
  serializedVersion: 6
  m_Component:
  - component: {fileID: 726882427}
  - component: {fileID: 726882426}
  - component: {fileID: 726882425}
  - component: {fileID: 726882424}
  m_Layer: 5
  m_Name: Canvas
  m_TagString: Untagged
  m_Icon: {fileID: 0}
  m_NavMeshLayer: 0
  m_StaticEditorFlags: 0
  m_IsActive: 1
--- !u!114 &726882424
MonoBehaviour:
  m_ObjectHideFlags: 0
  m_CorrespondingSourceObject: {fileID: 0}
  m_PrefabInstance: {fileID: 0}
  m_PrefabAsset: {fileID: 0}
  m_GameObject: {fileID: 726882423}
  m_Enabled: 1
  m_EditorHideFlags: 0
  m_Script: {fileID: 1301386320, guid: f70555f144d8491a825f0804e09c671c, type: 3}
  m_Name: 
  m_EditorClassIdentifier: 
  m_IgnoreReversedGraphics: 1
  m_BlockingObjects: 0
  m_BlockingMask:
    serializedVersion: 2
    m_Bits: 4294967295
--- !u!114 &726882425
MonoBehaviour:
  m_ObjectHideFlags: 0
  m_CorrespondingSourceObject: {fileID: 0}
  m_PrefabInstance: {fileID: 0}
  m_PrefabAsset: {fileID: 0}
  m_GameObject: {fileID: 726882423}
  m_Enabled: 1
  m_EditorHideFlags: 0
  m_Script: {fileID: 1980459831, guid: f70555f144d8491a825f0804e09c671c, type: 3}
  m_Name: 
  m_EditorClassIdentifier: 
  m_UiScaleMode: 0
  m_ReferencePixelsPerUnit: 100
  m_ScaleFactor: 1
  m_ReferenceResolution: {x: 800, y: 600}
  m_ScreenMatchMode: 0
  m_MatchWidthOrHeight: 0
  m_PhysicalUnit: 3
  m_FallbackScreenDPI: 96
  m_DefaultSpriteDPI: 96
  m_DynamicPixelsPerUnit: 1
--- !u!223 &726882426
Canvas:
  m_ObjectHideFlags: 0
  m_CorrespondingSourceObject: {fileID: 0}
  m_PrefabInstance: {fileID: 0}
  m_PrefabAsset: {fileID: 0}
  m_GameObject: {fileID: 726882423}
  m_Enabled: 1
  serializedVersion: 3
  m_RenderMode: 0
  m_Camera: {fileID: 0}
  m_PlaneDistance: 100
  m_PixelPerfect: 0
  m_ReceivesEvents: 1
  m_OverrideSorting: 0
  m_OverridePixelPerfect: 0
  m_SortingBucketNormalizedSize: 0
  m_AdditionalShaderChannelsFlag: 0
  m_SortingLayerID: 0
  m_SortingOrder: 0
  m_TargetDisplay: 0
--- !u!224 &726882427
RectTransform:
  m_ObjectHideFlags: 0
  m_CorrespondingSourceObject: {fileID: 0}
  m_PrefabInstance: {fileID: 0}
  m_PrefabAsset: {fileID: 0}
  m_GameObject: {fileID: 726882423}
  m_LocalRotation: {x: 0, y: 0, z: 0, w: 1}
  m_LocalPosition: {x: 0, y: 0, z: 0}
  m_LocalScale: {x: 0, y: 0, z: 0}
  m_Children:
  - {fileID: 1387614108}
  - {fileID: 486148099}
  m_Father: {fileID: 0}
  m_RootOrder: 2
  m_LocalEulerAnglesHint: {x: 0, y: 0, z: 0}
  m_AnchorMin: {x: 0, y: 0}
  m_AnchorMax: {x: 0, y: 0}
  m_AnchoredPosition: {x: 0, y: 0}
  m_SizeDelta: {x: 0, y: 0}
  m_Pivot: {x: 0, y: 0}
--- !u!1001 &746788079
PrefabInstance:
  m_ObjectHideFlags: 0
  serializedVersion: 2
  m_Modification:
    m_TransformParent: {fileID: 0}
    m_Modifications:
    - target: {fileID: 5390498342531988462, guid: 749c8060be6fa3d498687104d098daff,
        type: 3}
      propertyPath: m_Name
      value: Skald
      objectReference: {fileID: 0}
    - target: {fileID: 4105037647909379618, guid: 749c8060be6fa3d498687104d098daff,
        type: 3}
      propertyPath: m_LocalPosition.x
      value: -3.43
      objectReference: {fileID: 0}
    - target: {fileID: 4105037647909379618, guid: 749c8060be6fa3d498687104d098daff,
        type: 3}
      propertyPath: m_LocalPosition.y
      value: 8.03
      objectReference: {fileID: 0}
    - target: {fileID: 4105037647909379618, guid: 749c8060be6fa3d498687104d098daff,
        type: 3}
      propertyPath: m_LocalPosition.z
      value: -0.07977189
      objectReference: {fileID: 0}
    - target: {fileID: 4105037647909379618, guid: 749c8060be6fa3d498687104d098daff,
        type: 3}
      propertyPath: m_LocalRotation.x
      value: 0
      objectReference: {fileID: 0}
    - target: {fileID: 4105037647909379618, guid: 749c8060be6fa3d498687104d098daff,
        type: 3}
      propertyPath: m_LocalRotation.y
      value: 0
      objectReference: {fileID: 0}
    - target: {fileID: 4105037647909379618, guid: 749c8060be6fa3d498687104d098daff,
        type: 3}
      propertyPath: m_LocalRotation.z
      value: 0
      objectReference: {fileID: 0}
    - target: {fileID: 4105037647909379618, guid: 749c8060be6fa3d498687104d098daff,
        type: 3}
      propertyPath: m_LocalRotation.w
      value: 1
      objectReference: {fileID: 0}
    - target: {fileID: 4105037647909379618, guid: 749c8060be6fa3d498687104d098daff,
        type: 3}
      propertyPath: m_RootOrder
      value: 7
      objectReference: {fileID: 0}
    - target: {fileID: 4105037647909379618, guid: 749c8060be6fa3d498687104d098daff,
        type: 3}
      propertyPath: m_LocalEulerAnglesHint.x
      value: 0
      objectReference: {fileID: 0}
    - target: {fileID: 4105037647909379618, guid: 749c8060be6fa3d498687104d098daff,
        type: 3}
      propertyPath: m_LocalEulerAnglesHint.y
      value: 0
      objectReference: {fileID: 0}
    - target: {fileID: 4105037647909379618, guid: 749c8060be6fa3d498687104d098daff,
        type: 3}
      propertyPath: m_LocalEulerAnglesHint.z
      value: 0
      objectReference: {fileID: 0}
    - target: {fileID: 4105037647909379618, guid: 749c8060be6fa3d498687104d098daff,
        type: 3}
      propertyPath: m_LocalScale.x
      value: 0.4
      objectReference: {fileID: 0}
    - target: {fileID: 4105037647909379618, guid: 749c8060be6fa3d498687104d098daff,
        type: 3}
      propertyPath: m_LocalScale.y
      value: 0.4
      objectReference: {fileID: 0}
    m_RemovedComponents: []
  m_SourcePrefab: {fileID: 100100000, guid: 749c8060be6fa3d498687104d098daff, type: 3}
--- !u!1001 &830498640
PrefabInstance:
  m_ObjectHideFlags: 0
  serializedVersion: 2
  m_Modification:
    m_TransformParent: {fileID: 0}
    m_Modifications:
    - target: {fileID: 5390498342531988462, guid: 749c8060be6fa3d498687104d098daff,
        type: 3}
      propertyPath: m_Name
      value: Volsung
      objectReference: {fileID: 0}
    - target: {fileID: 4105037647909379618, guid: 749c8060be6fa3d498687104d098daff,
        type: 3}
      propertyPath: m_LocalPosition.x
      value: 17.86
      objectReference: {fileID: 0}
    - target: {fileID: 4105037647909379618, guid: 749c8060be6fa3d498687104d098daff,
        type: 3}
      propertyPath: m_LocalPosition.y
      value: -11.4
      objectReference: {fileID: 0}
    - target: {fileID: 4105037647909379618, guid: 749c8060be6fa3d498687104d098daff,
        type: 3}
      propertyPath: m_LocalPosition.z
      value: -0.07977189
      objectReference: {fileID: 0}
    - target: {fileID: 4105037647909379618, guid: 749c8060be6fa3d498687104d098daff,
        type: 3}
      propertyPath: m_LocalRotation.x
      value: 0
      objectReference: {fileID: 0}
    - target: {fileID: 4105037647909379618, guid: 749c8060be6fa3d498687104d098daff,
        type: 3}
      propertyPath: m_LocalRotation.y
      value: 0
      objectReference: {fileID: 0}
    - target: {fileID: 4105037647909379618, guid: 749c8060be6fa3d498687104d098daff,
        type: 3}
      propertyPath: m_LocalRotation.z
      value: 0
      objectReference: {fileID: 0}
    - target: {fileID: 4105037647909379618, guid: 749c8060be6fa3d498687104d098daff,
        type: 3}
      propertyPath: m_LocalRotation.w
      value: 1
      objectReference: {fileID: 0}
    - target: {fileID: 4105037647909379618, guid: 749c8060be6fa3d498687104d098daff,
        type: 3}
      propertyPath: m_RootOrder
      value: 12
      objectReference: {fileID: 0}
    - target: {fileID: 4105037647909379618, guid: 749c8060be6fa3d498687104d098daff,
        type: 3}
      propertyPath: m_LocalEulerAnglesHint.x
      value: 0
      objectReference: {fileID: 0}
    - target: {fileID: 4105037647909379618, guid: 749c8060be6fa3d498687104d098daff,
        type: 3}
      propertyPath: m_LocalEulerAnglesHint.y
      value: 0
      objectReference: {fileID: 0}
    - target: {fileID: 4105037647909379618, guid: 749c8060be6fa3d498687104d098daff,
        type: 3}
      propertyPath: m_LocalEulerAnglesHint.z
      value: 0
      objectReference: {fileID: 0}
    - target: {fileID: 4105037647909379618, guid: 749c8060be6fa3d498687104d098daff,
        type: 3}
      propertyPath: m_LocalScale.x
      value: 0.4
      objectReference: {fileID: 0}
    - target: {fileID: 4105037647909379618, guid: 749c8060be6fa3d498687104d098daff,
        type: 3}
      propertyPath: m_LocalScale.y
      value: 0.4
      objectReference: {fileID: 0}
    m_RemovedComponents: []
  m_SourcePrefab: {fileID: 100100000, guid: 749c8060be6fa3d498687104d098daff, type: 3}
--- !u!1001 &938160161
PrefabInstance:
  m_ObjectHideFlags: 0
  serializedVersion: 2
  m_Modification:
    m_TransformParent: {fileID: 0}
    m_Modifications:
    - target: {fileID: 5390498342531988462, guid: 749c8060be6fa3d498687104d098daff,
        type: 3}
      propertyPath: m_Name
      value: Sigurd
      objectReference: {fileID: 0}
    - target: {fileID: 4105037647909379618, guid: 749c8060be6fa3d498687104d098daff,
        type: 3}
      propertyPath: m_LocalPosition.x
      value: -18.3
      objectReference: {fileID: 0}
    - target: {fileID: 4105037647909379618, guid: 749c8060be6fa3d498687104d098daff,
        type: 3}
      propertyPath: m_LocalPosition.y
      value: -1.96
      objectReference: {fileID: 0}
    - target: {fileID: 4105037647909379618, guid: 749c8060be6fa3d498687104d098daff,
        type: 3}
      propertyPath: m_LocalPosition.z
      value: -0.07977189
      objectReference: {fileID: 0}
    - target: {fileID: 4105037647909379618, guid: 749c8060be6fa3d498687104d098daff,
        type: 3}
      propertyPath: m_LocalRotation.x
      value: 0
      objectReference: {fileID: 0}
    - target: {fileID: 4105037647909379618, guid: 749c8060be6fa3d498687104d098daff,
        type: 3}
      propertyPath: m_LocalRotation.y
      value: 0
      objectReference: {fileID: 0}
    - target: {fileID: 4105037647909379618, guid: 749c8060be6fa3d498687104d098daff,
        type: 3}
      propertyPath: m_LocalRotation.z
      value: 0
      objectReference: {fileID: 0}
    - target: {fileID: 4105037647909379618, guid: 749c8060be6fa3d498687104d098daff,
        type: 3}
      propertyPath: m_LocalRotation.w
      value: 1
      objectReference: {fileID: 0}
    - target: {fileID: 4105037647909379618, guid: 749c8060be6fa3d498687104d098daff,
        type: 3}
      propertyPath: m_RootOrder
      value: 14
      objectReference: {fileID: 0}
    - target: {fileID: 4105037647909379618, guid: 749c8060be6fa3d498687104d098daff,
        type: 3}
      propertyPath: m_LocalEulerAnglesHint.x
      value: 0
      objectReference: {fileID: 0}
    - target: {fileID: 4105037647909379618, guid: 749c8060be6fa3d498687104d098daff,
        type: 3}
      propertyPath: m_LocalEulerAnglesHint.y
      value: 0
      objectReference: {fileID: 0}
    - target: {fileID: 4105037647909379618, guid: 749c8060be6fa3d498687104d098daff,
        type: 3}
      propertyPath: m_LocalEulerAnglesHint.z
      value: 0
      objectReference: {fileID: 0}
    - target: {fileID: 4105037647909379618, guid: 749c8060be6fa3d498687104d098daff,
        type: 3}
      propertyPath: m_LocalScale.x
      value: 0.4
      objectReference: {fileID: 0}
    - target: {fileID: 4105037647909379618, guid: 749c8060be6fa3d498687104d098daff,
        type: 3}
      propertyPath: m_LocalScale.y
      value: 0.4
      objectReference: {fileID: 0}
    m_RemovedComponents: []
  m_SourcePrefab: {fileID: 100100000, guid: 749c8060be6fa3d498687104d098daff, type: 3}
--- !u!1001 &943809965
PrefabInstance:
  m_ObjectHideFlags: 0
  serializedVersion: 2
  m_Modification:
    m_TransformParent: {fileID: 0}
    m_Modifications:
    - target: {fileID: 5390498342531988462, guid: 749c8060be6fa3d498687104d098daff,
        type: 3}
      propertyPath: m_Name
      value: FuelStop2
      objectReference: {fileID: 0}
    - target: {fileID: 4105037647909379618, guid: 749c8060be6fa3d498687104d098daff,
        type: 3}
      propertyPath: m_LocalPosition.x
      value: -12.2
      objectReference: {fileID: 0}
    - target: {fileID: 4105037647909379618, guid: 749c8060be6fa3d498687104d098daff,
        type: 3}
      propertyPath: m_LocalPosition.y
      value: 8
      objectReference: {fileID: 0}
    - target: {fileID: 4105037647909379618, guid: 749c8060be6fa3d498687104d098daff,
        type: 3}
      propertyPath: m_LocalPosition.z
      value: -0.07977189
      objectReference: {fileID: 0}
    - target: {fileID: 4105037647909379618, guid: 749c8060be6fa3d498687104d098daff,
        type: 3}
      propertyPath: m_LocalRotation.x
      value: 0
      objectReference: {fileID: 0}
    - target: {fileID: 4105037647909379618, guid: 749c8060be6fa3d498687104d098daff,
        type: 3}
      propertyPath: m_LocalRotation.y
      value: 0
      objectReference: {fileID: 0}
    - target: {fileID: 4105037647909379618, guid: 749c8060be6fa3d498687104d098daff,
        type: 3}
      propertyPath: m_LocalRotation.z
      value: 0
      objectReference: {fileID: 0}
    - target: {fileID: 4105037647909379618, guid: 749c8060be6fa3d498687104d098daff,
        type: 3}
      propertyPath: m_LocalRotation.w
      value: 1
      objectReference: {fileID: 0}
    - target: {fileID: 4105037647909379618, guid: 749c8060be6fa3d498687104d098daff,
        type: 3}
      propertyPath: m_RootOrder
      value: 22
      objectReference: {fileID: 0}
    - target: {fileID: 4105037647909379618, guid: 749c8060be6fa3d498687104d098daff,
        type: 3}
      propertyPath: m_LocalEulerAnglesHint.x
      value: 0
      objectReference: {fileID: 0}
    - target: {fileID: 4105037647909379618, guid: 749c8060be6fa3d498687104d098daff,
        type: 3}
      propertyPath: m_LocalEulerAnglesHint.y
      value: 0
      objectReference: {fileID: 0}
    - target: {fileID: 4105037647909379618, guid: 749c8060be6fa3d498687104d098daff,
        type: 3}
      propertyPath: m_LocalEulerAnglesHint.z
      value: 0
      objectReference: {fileID: 0}
    - target: {fileID: 4105037647909379618, guid: 749c8060be6fa3d498687104d098daff,
        type: 3}
      propertyPath: m_LocalScale.x
      value: 0.25
      objectReference: {fileID: 0}
    - target: {fileID: 4105037647909379618, guid: 749c8060be6fa3d498687104d098daff,
        type: 3}
      propertyPath: m_LocalScale.y
      value: 0.25
      objectReference: {fileID: 0}
    - target: {fileID: 6021934067299923636, guid: 749c8060be6fa3d498687104d098daff,
        type: 3}
      propertyPath: FuelRest
      value: 1
      objectReference: {fileID: 0}
    - target: {fileID: 7154399756466663294, guid: 749c8060be6fa3d498687104d098daff,
        type: 3}
      propertyPath: m_Color.r
      value: 0.2784314
      objectReference: {fileID: 0}
    - target: {fileID: 7154399756466663294, guid: 749c8060be6fa3d498687104d098daff,
        type: 3}
      propertyPath: m_Color.g
      value: 0.2784314
      objectReference: {fileID: 0}
    - target: {fileID: 7154399756466663294, guid: 749c8060be6fa3d498687104d098daff,
        type: 3}
      propertyPath: m_Color.b
      value: 0.2784314
      objectReference: {fileID: 0}
    m_RemovedComponents: []
  m_SourcePrefab: {fileID: 100100000, guid: 749c8060be6fa3d498687104d098daff, type: 3}
--- !u!1001 &1076256816
PrefabInstance:
  m_ObjectHideFlags: 0
  serializedVersion: 2
  m_Modification:
    m_TransformParent: {fileID: 0}
    m_Modifications:
    - target: {fileID: 5390498342531988462, guid: 749c8060be6fa3d498687104d098daff,
        type: 3}
      propertyPath: m_Name
      value: Nari
      objectReference: {fileID: 0}
    - target: {fileID: 4105037647909379618, guid: 749c8060be6fa3d498687104d098daff,
        type: 3}
      propertyPath: m_LocalPosition.x
      value: -15.62
      objectReference: {fileID: 0}
    - target: {fileID: 4105037647909379618, guid: 749c8060be6fa3d498687104d098daff,
        type: 3}
      propertyPath: m_LocalPosition.y
      value: 3.68
      objectReference: {fileID: 0}
    - target: {fileID: 4105037647909379618, guid: 749c8060be6fa3d498687104d098daff,
        type: 3}
      propertyPath: m_LocalPosition.z
      value: -0.07977189
      objectReference: {fileID: 0}
    - target: {fileID: 4105037647909379618, guid: 749c8060be6fa3d498687104d098daff,
        type: 3}
      propertyPath: m_LocalRotation.x
      value: 0
      objectReference: {fileID: 0}
    - target: {fileID: 4105037647909379618, guid: 749c8060be6fa3d498687104d098daff,
        type: 3}
      propertyPath: m_LocalRotation.y
      value: 0
      objectReference: {fileID: 0}
    - target: {fileID: 4105037647909379618, guid: 749c8060be6fa3d498687104d098daff,
        type: 3}
      propertyPath: m_LocalRotation.z
      value: 0
      objectReference: {fileID: 0}
    - target: {fileID: 4105037647909379618, guid: 749c8060be6fa3d498687104d098daff,
        type: 3}
      propertyPath: m_LocalRotation.w
      value: 1
      objectReference: {fileID: 0}
    - target: {fileID: 4105037647909379618, guid: 749c8060be6fa3d498687104d098daff,
        type: 3}
      propertyPath: m_RootOrder
      value: 15
      objectReference: {fileID: 0}
    - target: {fileID: 4105037647909379618, guid: 749c8060be6fa3d498687104d098daff,
        type: 3}
      propertyPath: m_LocalEulerAnglesHint.x
      value: 0
      objectReference: {fileID: 0}
    - target: {fileID: 4105037647909379618, guid: 749c8060be6fa3d498687104d098daff,
        type: 3}
      propertyPath: m_LocalEulerAnglesHint.y
      value: 0
      objectReference: {fileID: 0}
    - target: {fileID: 4105037647909379618, guid: 749c8060be6fa3d498687104d098daff,
        type: 3}
      propertyPath: m_LocalEulerAnglesHint.z
      value: 0
      objectReference: {fileID: 0}
    - target: {fileID: 4105037647909379618, guid: 749c8060be6fa3d498687104d098daff,
        type: 3}
      propertyPath: m_LocalScale.x
      value: 0.4
      objectReference: {fileID: 0}
    - target: {fileID: 4105037647909379618, guid: 749c8060be6fa3d498687104d098daff,
        type: 3}
      propertyPath: m_LocalScale.y
      value: 0.4
      objectReference: {fileID: 0}
    m_RemovedComponents: []
  m_SourcePrefab: {fileID: 100100000, guid: 749c8060be6fa3d498687104d098daff, type: 3}
--- !u!1 &1156345403
GameObject:
  m_ObjectHideFlags: 0
  m_CorrespondingSourceObject: {fileID: 0}
  m_PrefabInstance: {fileID: 0}
  m_PrefabAsset: {fileID: 0}
  serializedVersion: 6
  m_Component:
  - component: {fileID: 1156345404}
  - component: {fileID: 1156345406}
  - component: {fileID: 1156345405}
  m_Layer: 5
  m_Name: StaticBar
  m_TagString: Untagged
  m_Icon: {fileID: 0}
  m_NavMeshLayer: 0
  m_StaticEditorFlags: 0
  m_IsActive: 1
--- !u!224 &1156345404
RectTransform:
  m_ObjectHideFlags: 0
  m_CorrespondingSourceObject: {fileID: 0}
  m_PrefabInstance: {fileID: 0}
  m_PrefabAsset: {fileID: 0}
  m_GameObject: {fileID: 1156345403}
  m_LocalRotation: {x: 0, y: 0, z: 0, w: 1}
  m_LocalPosition: {x: 0, y: 0, z: 0}
  m_LocalScale: {x: 1, y: 0.2, z: 1}
  m_Children:
  - {fileID: 1490157134}
  m_Father: {fileID: 486148099}
  m_RootOrder: 0
  m_LocalEulerAnglesHint: {x: 0, y: 0, z: 0}
  m_AnchorMin: {x: 0.5, y: 0.5}
  m_AnchorMax: {x: 0.5, y: 0.5}
  m_AnchoredPosition: {x: 0, y: 0}
  m_SizeDelta: {x: 100, y: 100}
  m_Pivot: {x: 0.5, y: 0.5}
--- !u!114 &1156345405
MonoBehaviour:
  m_ObjectHideFlags: 0
  m_CorrespondingSourceObject: {fileID: 0}
  m_PrefabInstance: {fileID: 0}
  m_PrefabAsset: {fileID: 0}
  m_GameObject: {fileID: 1156345403}
  m_Enabled: 1
  m_EditorHideFlags: 0
  m_Script: {fileID: -765806418, guid: f70555f144d8491a825f0804e09c671c, type: 3}
  m_Name: 
  m_EditorClassIdentifier: 
  m_Material: {fileID: 0}
  m_Color: {r: 1, g: 1, b: 1, a: 1}
  m_RaycastTarget: 1
  m_OnCullStateChanged:
    m_PersistentCalls:
      m_Calls: []
    m_TypeName: UnityEngine.UI.MaskableGraphic+CullStateChangedEvent, UnityEngine.UI,
      Version=1.0.0.0, Culture=neutral, PublicKeyToken=null
  m_Sprite: {fileID: 0}
  m_Type: 0
  m_PreserveAspect: 0
  m_FillCenter: 1
  m_FillMethod: 4
  m_FillAmount: 1
  m_FillClockwise: 1
  m_FillOrigin: 0
  m_UseSpriteMesh: 0
--- !u!222 &1156345406
CanvasRenderer:
  m_ObjectHideFlags: 0
  m_CorrespondingSourceObject: {fileID: 0}
  m_PrefabInstance: {fileID: 0}
  m_PrefabAsset: {fileID: 0}
  m_GameObject: {fileID: 1156345403}
  m_CullTransparentMesh: 0
--- !u!1 &1387614107
GameObject:
  m_ObjectHideFlags: 0
  m_CorrespondingSourceObject: {fileID: 0}
  m_PrefabInstance: {fileID: 0}
  m_PrefabAsset: {fileID: 0}
  serializedVersion: 6
  m_Component:
  - component: {fileID: 1387614108}
  - component: {fileID: 1387614110}
  - component: {fileID: 1387614109}
  m_Layer: 5
  m_Name: Text
  m_TagString: PlanetCounter
  m_Icon: {fileID: 0}
  m_NavMeshLayer: 0
  m_StaticEditorFlags: 0
  m_IsActive: 1
--- !u!224 &1387614108
RectTransform:
  m_ObjectHideFlags: 0
  m_CorrespondingSourceObject: {fileID: 0}
  m_PrefabInstance: {fileID: 0}
  m_PrefabAsset: {fileID: 0}
  m_GameObject: {fileID: 1387614107}
  m_LocalRotation: {x: 0, y: 0, z: 0, w: 1}
  m_LocalPosition: {x: 0, y: 0, z: 0}
  m_LocalScale: {x: 2, y: 2, z: 2}
  m_Children: []
  m_Father: {fileID: 726882427}
  m_RootOrder: 0
  m_LocalEulerAnglesHint: {x: 0, y: 0, z: 0}
  m_AnchorMin: {x: 0.5, y: 0.5}
  m_AnchorMax: {x: 0.5, y: 0.5}
  m_AnchoredPosition: {x: -275, y: 217}
  m_SizeDelta: {x: 160, y: 30}
  m_Pivot: {x: 0.5, y: 0.5}
--- !u!114 &1387614109
MonoBehaviour:
  m_ObjectHideFlags: 0
  m_CorrespondingSourceObject: {fileID: 0}
  m_PrefabInstance: {fileID: 0}
  m_PrefabAsset: {fileID: 0}
  m_GameObject: {fileID: 1387614107}
  m_Enabled: 1
  m_EditorHideFlags: 0
  m_Script: {fileID: 708705254, guid: f70555f144d8491a825f0804e09c671c, type: 3}
  m_Name: 
  m_EditorClassIdentifier: 
  m_Material: {fileID: 0}
  m_Color: {r: 0.19607843, g: 0.19607843, b: 0.19607843, a: 1}
  m_RaycastTarget: 1
  m_OnCullStateChanged:
    m_PersistentCalls:
      m_Calls: []
    m_TypeName: UnityEngine.UI.MaskableGraphic+CullStateChangedEvent, UnityEngine.UI,
      Version=1.0.0.0, Culture=neutral, PublicKeyToken=null
  m_FontData:
    m_Font: {fileID: 12800000, guid: fb2b694c86912124aa81a3211d2b6874, type: 3}
    m_FontSize: 14
    m_FontStyle: 0
    m_BestFit: 0
    m_MinSize: 0
    m_MaxSize: 40
    m_Alignment: 0
    m_AlignByGeometry: 0
    m_RichText: 1
    m_HorizontalOverflow: 1
    m_VerticalOverflow: 1
    m_LineSpacing: 1
  m_Text: New Text
--- !u!222 &1387614110
CanvasRenderer:
  m_ObjectHideFlags: 0
  m_CorrespondingSourceObject: {fileID: 0}
  m_PrefabInstance: {fileID: 0}
  m_PrefabAsset: {fileID: 0}
  m_GameObject: {fileID: 1387614107}
  m_CullTransparentMesh: 0
--- !u!1001 &1403301450
PrefabInstance:
  m_ObjectHideFlags: 0
  serializedVersion: 2
  m_Modification:
    m_TransformParent: {fileID: 0}
    m_Modifications:
    - target: {fileID: 5390498342531988462, guid: 749c8060be6fa3d498687104d098daff,
        type: 3}
      propertyPath: m_Name
      value: Horgr
      objectReference: {fileID: 0}
    - target: {fileID: 4105037647909379618, guid: 749c8060be6fa3d498687104d098daff,
        type: 3}
      propertyPath: m_LocalPosition.x
      value: 13.75
      objectReference: {fileID: 0}
    - target: {fileID: 4105037647909379618, guid: 749c8060be6fa3d498687104d098daff,
        type: 3}
      propertyPath: m_LocalPosition.y
      value: 6.11
      objectReference: {fileID: 0}
    - target: {fileID: 4105037647909379618, guid: 749c8060be6fa3d498687104d098daff,
        type: 3}
      propertyPath: m_LocalPosition.z
      value: -0.07977189
      objectReference: {fileID: 0}
    - target: {fileID: 4105037647909379618, guid: 749c8060be6fa3d498687104d098daff,
        type: 3}
      propertyPath: m_LocalRotation.x
      value: 0
      objectReference: {fileID: 0}
    - target: {fileID: 4105037647909379618, guid: 749c8060be6fa3d498687104d098daff,
        type: 3}
      propertyPath: m_LocalRotation.y
      value: 0
      objectReference: {fileID: 0}
    - target: {fileID: 4105037647909379618, guid: 749c8060be6fa3d498687104d098daff,
        type: 3}
      propertyPath: m_LocalRotation.z
      value: 0
      objectReference: {fileID: 0}
    - target: {fileID: 4105037647909379618, guid: 749c8060be6fa3d498687104d098daff,
        type: 3}
      propertyPath: m_LocalRotation.w
      value: 1
      objectReference: {fileID: 0}
    - target: {fileID: 4105037647909379618, guid: 749c8060be6fa3d498687104d098daff,
        type: 3}
      propertyPath: m_RootOrder
      value: 18
      objectReference: {fileID: 0}
    - target: {fileID: 4105037647909379618, guid: 749c8060be6fa3d498687104d098daff,
        type: 3}
      propertyPath: m_LocalEulerAnglesHint.x
      value: 0
      objectReference: {fileID: 0}
    - target: {fileID: 4105037647909379618, guid: 749c8060be6fa3d498687104d098daff,
        type: 3}
      propertyPath: m_LocalEulerAnglesHint.y
      value: 0
      objectReference: {fileID: 0}
    - target: {fileID: 4105037647909379618, guid: 749c8060be6fa3d498687104d098daff,
        type: 3}
      propertyPath: m_LocalEulerAnglesHint.z
      value: 0
      objectReference: {fileID: 0}
    - target: {fileID: 4105037647909379618, guid: 749c8060be6fa3d498687104d098daff,
        type: 3}
      propertyPath: m_LocalScale.x
      value: 0.4
      objectReference: {fileID: 0}
    - target: {fileID: 4105037647909379618, guid: 749c8060be6fa3d498687104d098daff,
        type: 3}
      propertyPath: m_LocalScale.y
      value: 0.4
      objectReference: {fileID: 0}
    m_RemovedComponents: []
  m_SourcePrefab: {fileID: 100100000, guid: 749c8060be6fa3d498687104d098daff, type: 3}
--- !u!1001 &1473098672
PrefabInstance:
  m_ObjectHideFlags: 0
  serializedVersion: 2
  m_Modification:
    m_TransformParent: {fileID: 0}
    m_Modifications:
    - target: {fileID: 5390498342531988462, guid: 749c8060be6fa3d498687104d098daff,
        type: 3}
      propertyPath: m_Name
      value: Wyrd
      objectReference: {fileID: 0}
    - target: {fileID: 4105037647909379618, guid: 749c8060be6fa3d498687104d098daff,
        type: 3}
      propertyPath: m_LocalPosition.x
      value: -14.24
      objectReference: {fileID: 0}
    - target: {fileID: 4105037647909379618, guid: 749c8060be6fa3d498687104d098daff,
        type: 3}
      propertyPath: m_LocalPosition.y
      value: -7.29
      objectReference: {fileID: 0}
    - target: {fileID: 4105037647909379618, guid: 749c8060be6fa3d498687104d098daff,
        type: 3}
      propertyPath: m_LocalPosition.z
      value: -0.07977189
      objectReference: {fileID: 0}
    - target: {fileID: 4105037647909379618, guid: 749c8060be6fa3d498687104d098daff,
        type: 3}
      propertyPath: m_LocalRotation.x
      value: 0
      objectReference: {fileID: 0}
    - target: {fileID: 4105037647909379618, guid: 749c8060be6fa3d498687104d098daff,
        type: 3}
      propertyPath: m_LocalRotation.y
      value: 0
      objectReference: {fileID: 0}
    - target: {fileID: 4105037647909379618, guid: 749c8060be6fa3d498687104d098daff,
        type: 3}
      propertyPath: m_LocalRotation.z
      value: 0
      objectReference: {fileID: 0}
    - target: {fileID: 4105037647909379618, guid: 749c8060be6fa3d498687104d098daff,
        type: 3}
      propertyPath: m_LocalRotation.w
      value: 1
      objectReference: {fileID: 0}
    - target: {fileID: 4105037647909379618, guid: 749c8060be6fa3d498687104d098daff,
        type: 3}
      propertyPath: m_RootOrder
      value: 19
      objectReference: {fileID: 0}
    - target: {fileID: 4105037647909379618, guid: 749c8060be6fa3d498687104d098daff,
        type: 3}
      propertyPath: m_LocalEulerAnglesHint.x
      value: 0
      objectReference: {fileID: 0}
    - target: {fileID: 4105037647909379618, guid: 749c8060be6fa3d498687104d098daff,
        type: 3}
      propertyPath: m_LocalEulerAnglesHint.y
      value: 0
      objectReference: {fileID: 0}
    - target: {fileID: 4105037647909379618, guid: 749c8060be6fa3d498687104d098daff,
        type: 3}
      propertyPath: m_LocalEulerAnglesHint.z
      value: 0
      objectReference: {fileID: 0}
    - target: {fileID: 4105037647909379618, guid: 749c8060be6fa3d498687104d098daff,
        type: 3}
      propertyPath: m_LocalScale.x
      value: 0.4
      objectReference: {fileID: 0}
    - target: {fileID: 4105037647909379618, guid: 749c8060be6fa3d498687104d098daff,
        type: 3}
      propertyPath: m_LocalScale.y
      value: 0.4
      objectReference: {fileID: 0}
    m_RemovedComponents: []
  m_SourcePrefab: {fileID: 100100000, guid: 749c8060be6fa3d498687104d098daff, type: 3}
--- !u!1 &1490157133
GameObject:
  m_ObjectHideFlags: 0
  m_CorrespondingSourceObject: {fileID: 0}
  m_PrefabInstance: {fileID: 0}
  m_PrefabAsset: {fileID: 0}
  serializedVersion: 6
  m_Component:
  - component: {fileID: 1490157134}
  m_Layer: 5
  m_Name: DynamicBar
  m_TagString: FuelLevel
  m_Icon: {fileID: 0}
  m_NavMeshLayer: 0
  m_StaticEditorFlags: 0
  m_IsActive: 1
--- !u!224 &1490157134
RectTransform:
  m_ObjectHideFlags: 0
  m_CorrespondingSourceObject: {fileID: 0}
  m_PrefabInstance: {fileID: 0}
  m_PrefabAsset: {fileID: 0}
  m_GameObject: {fileID: 1490157133}
  m_LocalRotation: {x: 0, y: 0, z: 0, w: 1}
  m_LocalPosition: {x: 0, y: 0, z: 0}
  m_LocalScale: {x: 1, y: 1, z: 1}
  m_Children:
  - {fileID: 1798212992}
  m_Father: {fileID: 1156345404}
  m_RootOrder: 0
  m_LocalEulerAnglesHint: {x: 0, y: 0, z: 0}
  m_AnchorMin: {x: 0.5, y: 0.5}
  m_AnchorMax: {x: 0.5, y: 0.5}
  m_AnchoredPosition: {x: -49, y: 0}
  m_SizeDelta: {x: 100, y: 100}
  m_Pivot: {x: 0.5, y: 0.5}
--- !u!1001 &1501622251
PrefabInstance:
  m_ObjectHideFlags: 0
  serializedVersion: 2
  m_Modification:
    m_TransformParent: {fileID: 0}
    m_Modifications:
    - target: {fileID: 5390498342531988462, guid: 749c8060be6fa3d498687104d098daff,
        type: 3}
      propertyPath: m_Name
      value: Nibelung
      objectReference: {fileID: 0}
    - target: {fileID: 4105037647909379618, guid: 749c8060be6fa3d498687104d098daff,
        type: 3}
      propertyPath: m_LocalPosition.x
      value: 20.73
      objectReference: {fileID: 0}
    - target: {fileID: 4105037647909379618, guid: 749c8060be6fa3d498687104d098daff,
        type: 3}
      propertyPath: m_LocalPosition.y
      value: 12.9
      objectReference: {fileID: 0}
    - target: {fileID: 4105037647909379618, guid: 749c8060be6fa3d498687104d098daff,
        type: 3}
      propertyPath: m_LocalPosition.z
      value: -0.07977189
      objectReference: {fileID: 0}
    - target: {fileID: 4105037647909379618, guid: 749c8060be6fa3d498687104d098daff,
        type: 3}
      propertyPath: m_LocalRotation.x
      value: 0
      objectReference: {fileID: 0}
    - target: {fileID: 4105037647909379618, guid: 749c8060be6fa3d498687104d098daff,
        type: 3}
      propertyPath: m_LocalRotation.y
      value: 0
      objectReference: {fileID: 0}
    - target: {fileID: 4105037647909379618, guid: 749c8060be6fa3d498687104d098daff,
        type: 3}
      propertyPath: m_LocalRotation.z
      value: 0
      objectReference: {fileID: 0}
    - target: {fileID: 4105037647909379618, guid: 749c8060be6fa3d498687104d098daff,
        type: 3}
      propertyPath: m_LocalRotation.w
      value: 1
      objectReference: {fileID: 0}
    - target: {fileID: 4105037647909379618, guid: 749c8060be6fa3d498687104d098daff,
        type: 3}
      propertyPath: m_RootOrder
      value: 17
      objectReference: {fileID: 0}
    - target: {fileID: 4105037647909379618, guid: 749c8060be6fa3d498687104d098daff,
        type: 3}
      propertyPath: m_LocalEulerAnglesHint.x
      value: 0
      objectReference: {fileID: 0}
    - target: {fileID: 4105037647909379618, guid: 749c8060be6fa3d498687104d098daff,
        type: 3}
      propertyPath: m_LocalEulerAnglesHint.y
      value: 0
      objectReference: {fileID: 0}
    - target: {fileID: 4105037647909379618, guid: 749c8060be6fa3d498687104d098daff,
        type: 3}
      propertyPath: m_LocalEulerAnglesHint.z
      value: 0
      objectReference: {fileID: 0}
    - target: {fileID: 4105037647909379618, guid: 749c8060be6fa3d498687104d098daff,
        type: 3}
      propertyPath: m_LocalScale.x
      value: 0.4
      objectReference: {fileID: 0}
    - target: {fileID: 4105037647909379618, guid: 749c8060be6fa3d498687104d098daff,
        type: 3}
      propertyPath: m_LocalScale.y
      value: 0.4
      objectReference: {fileID: 0}
    m_RemovedComponents: []
  m_SourcePrefab: {fileID: 100100000, guid: 749c8060be6fa3d498687104d098daff, type: 3}
--- !u!1001 &1602084694
PrefabInstance:
  m_ObjectHideFlags: 0
  serializedVersion: 2
  m_Modification:
    m_TransformParent: {fileID: 0}
    m_Modifications:
    - target: {fileID: 5390498342531988462, guid: 749c8060be6fa3d498687104d098daff,
        type: 3}
      propertyPath: m_Name
      value: Odin
      objectReference: {fileID: 0}
    - target: {fileID: 4105037647909379618, guid: 749c8060be6fa3d498687104d098daff,
        type: 3}
      propertyPath: m_LocalPosition.x
      value: 5.88
      objectReference: {fileID: 0}
    - target: {fileID: 4105037647909379618, guid: 749c8060be6fa3d498687104d098daff,
        type: 3}
      propertyPath: m_LocalPosition.y
      value: 2.92
      objectReference: {fileID: 0}
    - target: {fileID: 4105037647909379618, guid: 749c8060be6fa3d498687104d098daff,
        type: 3}
      propertyPath: m_LocalPosition.z
      value: -0.07977189
      objectReference: {fileID: 0}
    - target: {fileID: 4105037647909379618, guid: 749c8060be6fa3d498687104d098daff,
        type: 3}
      propertyPath: m_LocalRotation.x
      value: 0
      objectReference: {fileID: 0}
    - target: {fileID: 4105037647909379618, guid: 749c8060be6fa3d498687104d098daff,
        type: 3}
      propertyPath: m_LocalRotation.y
      value: 0
      objectReference: {fileID: 0}
    - target: {fileID: 4105037647909379618, guid: 749c8060be6fa3d498687104d098daff,
        type: 3}
      propertyPath: m_LocalRotation.z
      value: 0
      objectReference: {fileID: 0}
    - target: {fileID: 4105037647909379618, guid: 749c8060be6fa3d498687104d098daff,
        type: 3}
      propertyPath: m_LocalRotation.w
      value: 1
      objectReference: {fileID: 0}
    - target: {fileID: 4105037647909379618, guid: 749c8060be6fa3d498687104d098daff,
        type: 3}
      propertyPath: m_RootOrder
      value: 5
      objectReference: {fileID: 0}
    - target: {fileID: 4105037647909379618, guid: 749c8060be6fa3d498687104d098daff,
        type: 3}
      propertyPath: m_LocalEulerAnglesHint.x
      value: 0
      objectReference: {fileID: 0}
    - target: {fileID: 4105037647909379618, guid: 749c8060be6fa3d498687104d098daff,
        type: 3}
      propertyPath: m_LocalEulerAnglesHint.y
      value: 0
      objectReference: {fileID: 0}
    - target: {fileID: 4105037647909379618, guid: 749c8060be6fa3d498687104d098daff,
        type: 3}
      propertyPath: m_LocalEulerAnglesHint.z
      value: 0
      objectReference: {fileID: 0}
    - target: {fileID: 4105037647909379618, guid: 749c8060be6fa3d498687104d098daff,
        type: 3}
      propertyPath: m_LocalScale.x
      value: 0.4
      objectReference: {fileID: 0}
    - target: {fileID: 4105037647909379618, guid: 749c8060be6fa3d498687104d098daff,
        type: 3}
      propertyPath: m_LocalScale.y
      value: 0.4
      objectReference: {fileID: 0}
    m_RemovedComponents: []
  m_SourcePrefab: {fileID: 100100000, guid: 749c8060be6fa3d498687104d098daff, type: 3}
--- !u!1001 &1673683689
PrefabInstance:
  m_ObjectHideFlags: 0
  serializedVersion: 2
  m_Modification:
    m_TransformParent: {fileID: 0}
    m_Modifications:
    - target: {fileID: 5390498342531988462, guid: 749c8060be6fa3d498687104d098daff,
        type: 3}
      propertyPath: m_Name
      value: Mundilfari
      objectReference: {fileID: 0}
    - target: {fileID: 4105037647909379618, guid: 749c8060be6fa3d498687104d098daff,
        type: 3}
      propertyPath: m_LocalPosition.x
      value: 0.41
      objectReference: {fileID: 0}
    - target: {fileID: 4105037647909379618, guid: 749c8060be6fa3d498687104d098daff,
        type: 3}
      propertyPath: m_LocalPosition.y
      value: -8.68
      objectReference: {fileID: 0}
    - target: {fileID: 4105037647909379618, guid: 749c8060be6fa3d498687104d098daff,
        type: 3}
      propertyPath: m_LocalPosition.z
      value: -0.07977189
      objectReference: {fileID: 0}
    - target: {fileID: 4105037647909379618, guid: 749c8060be6fa3d498687104d098daff,
        type: 3}
      propertyPath: m_LocalRotation.x
      value: 0
      objectReference: {fileID: 0}
    - target: {fileID: 4105037647909379618, guid: 749c8060be6fa3d498687104d098daff,
        type: 3}
      propertyPath: m_LocalRotation.y
      value: 0
      objectReference: {fileID: 0}
    - target: {fileID: 4105037647909379618, guid: 749c8060be6fa3d498687104d098daff,
        type: 3}
      propertyPath: m_LocalRotation.z
      value: 0
      objectReference: {fileID: 0}
    - target: {fileID: 4105037647909379618, guid: 749c8060be6fa3d498687104d098daff,
        type: 3}
      propertyPath: m_LocalRotation.w
      value: 1
      objectReference: {fileID: 0}
    - target: {fileID: 4105037647909379618, guid: 749c8060be6fa3d498687104d098daff,
        type: 3}
      propertyPath: m_RootOrder
      value: 13
      objectReference: {fileID: 0}
    - target: {fileID: 4105037647909379618, guid: 749c8060be6fa3d498687104d098daff,
        type: 3}
      propertyPath: m_LocalEulerAnglesHint.x
      value: 0
      objectReference: {fileID: 0}
    - target: {fileID: 4105037647909379618, guid: 749c8060be6fa3d498687104d098daff,
        type: 3}
      propertyPath: m_LocalEulerAnglesHint.y
      value: 0
      objectReference: {fileID: 0}
    - target: {fileID: 4105037647909379618, guid: 749c8060be6fa3d498687104d098daff,
        type: 3}
      propertyPath: m_LocalEulerAnglesHint.z
      value: 0
      objectReference: {fileID: 0}
    - target: {fileID: 4105037647909379618, guid: 749c8060be6fa3d498687104d098daff,
        type: 3}
      propertyPath: m_LocalScale.x
      value: 0.4
      objectReference: {fileID: 0}
    - target: {fileID: 4105037647909379618, guid: 749c8060be6fa3d498687104d098daff,
        type: 3}
      propertyPath: m_LocalScale.y
      value: 0.4
      objectReference: {fileID: 0}
    m_RemovedComponents: []
  m_SourcePrefab: {fileID: 100100000, guid: 749c8060be6fa3d498687104d098daff, type: 3}
--- !u!1001 &1689214198
PrefabInstance:
  m_ObjectHideFlags: 0
  serializedVersion: 2
  m_Modification:
    m_TransformParent: {fileID: 0}
    m_Modifications:
    - target: {fileID: 5390498342531988462, guid: 749c8060be6fa3d498687104d098daff,
        type: 3}
      propertyPath: m_Name
      value: Naglfari
      objectReference: {fileID: 0}
    - target: {fileID: 4105037647909379618, guid: 749c8060be6fa3d498687104d098daff,
        type: 3}
      propertyPath: m_LocalPosition.x
      value: 18.21
      objectReference: {fileID: 0}
    - target: {fileID: 4105037647909379618, guid: 749c8060be6fa3d498687104d098daff,
        type: 3}
      propertyPath: m_LocalPosition.y
      value: -0.61
      objectReference: {fileID: 0}
    - target: {fileID: 4105037647909379618, guid: 749c8060be6fa3d498687104d098daff,
        type: 3}
      propertyPath: m_LocalPosition.z
      value: -0.07977189
      objectReference: {fileID: 0}
    - target: {fileID: 4105037647909379618, guid: 749c8060be6fa3d498687104d098daff,
        type: 3}
      propertyPath: m_LocalRotation.x
      value: 0
      objectReference: {fileID: 0}
    - target: {fileID: 4105037647909379618, guid: 749c8060be6fa3d498687104d098daff,
        type: 3}
      propertyPath: m_LocalRotation.y
      value: 0
      objectReference: {fileID: 0}
    - target: {fileID: 4105037647909379618, guid: 749c8060be6fa3d498687104d098daff,
        type: 3}
      propertyPath: m_LocalRotation.z
      value: 0
      objectReference: {fileID: 0}
    - target: {fileID: 4105037647909379618, guid: 749c8060be6fa3d498687104d098daff,
        type: 3}
      propertyPath: m_LocalRotation.w
      value: 1
      objectReference: {fileID: 0}
    - target: {fileID: 4105037647909379618, guid: 749c8060be6fa3d498687104d098daff,
        type: 3}
      propertyPath: m_RootOrder
      value: 11
      objectReference: {fileID: 0}
    - target: {fileID: 4105037647909379618, guid: 749c8060be6fa3d498687104d098daff,
        type: 3}
      propertyPath: m_LocalEulerAnglesHint.x
      value: 0
      objectReference: {fileID: 0}
    - target: {fileID: 4105037647909379618, guid: 749c8060be6fa3d498687104d098daff,
        type: 3}
      propertyPath: m_LocalEulerAnglesHint.y
      value: 0
      objectReference: {fileID: 0}
    - target: {fileID: 4105037647909379618, guid: 749c8060be6fa3d498687104d098daff,
        type: 3}
      propertyPath: m_LocalEulerAnglesHint.z
      value: 0
      objectReference: {fileID: 0}
    - target: {fileID: 4105037647909379618, guid: 749c8060be6fa3d498687104d098daff,
        type: 3}
      propertyPath: m_LocalScale.x
      value: 0.4
      objectReference: {fileID: 0}
    - target: {fileID: 4105037647909379618, guid: 749c8060be6fa3d498687104d098daff,
        type: 3}
      propertyPath: m_LocalScale.y
      value: 0.4
      objectReference: {fileID: 0}
    m_RemovedComponents: []
  m_SourcePrefab: {fileID: 100100000, guid: 749c8060be6fa3d498687104d098daff, type: 3}
--- !u!1 &1798212991
GameObject:
  m_ObjectHideFlags: 0
  m_CorrespondingSourceObject: {fileID: 0}
  m_PrefabInstance: {fileID: 0}
  m_PrefabAsset: {fileID: 0}
  serializedVersion: 6
  m_Component:
  - component: {fileID: 1798212992}
  - component: {fileID: 1798212994}
  - component: {fileID: 1798212993}
  m_Layer: 5
  m_Name: Image
  m_TagString: Untagged
  m_Icon: {fileID: 0}
  m_NavMeshLayer: 0
  m_StaticEditorFlags: 0
  m_IsActive: 1
--- !u!224 &1798212992
RectTransform:
  m_ObjectHideFlags: 0
  m_CorrespondingSourceObject: {fileID: 0}
  m_PrefabInstance: {fileID: 0}
  m_PrefabAsset: {fileID: 0}
  m_GameObject: {fileID: 1798212991}
  m_LocalRotation: {x: 0, y: 0, z: 0, w: 1}
  m_LocalPosition: {x: 0, y: 0, z: 0}
  m_LocalScale: {x: 1, y: 1, z: 1}
  m_Children: []
  m_Father: {fileID: 1490157134}
  m_RootOrder: 0
  m_LocalEulerAnglesHint: {x: 0, y: 0, z: 0}
  m_AnchorMin: {x: 0.5, y: 0.5}
  m_AnchorMax: {x: 0.5, y: 0.5}
  m_AnchoredPosition: {x: 49, y: 0}
  m_SizeDelta: {x: 100, y: 100}
  m_Pivot: {x: 0.5, y: 0.5}
--- !u!114 &1798212993
MonoBehaviour:
  m_ObjectHideFlags: 0
  m_CorrespondingSourceObject: {fileID: 0}
  m_PrefabInstance: {fileID: 0}
  m_PrefabAsset: {fileID: 0}
  m_GameObject: {fileID: 1798212991}
  m_Enabled: 1
  m_EditorHideFlags: 0
  m_Script: {fileID: -765806418, guid: f70555f144d8491a825f0804e09c671c, type: 3}
  m_Name: 
  m_EditorClassIdentifier: 
  m_Material: {fileID: 0}
  m_Color: {r: 0.11764707, g: 0.8431373, b: 0.37647063, a: 1}
  m_RaycastTarget: 1
  m_OnCullStateChanged:
    m_PersistentCalls:
      m_Calls: []
    m_TypeName: UnityEngine.UI.MaskableGraphic+CullStateChangedEvent, UnityEngine.UI,
      Version=1.0.0.0, Culture=neutral, PublicKeyToken=null
  m_Sprite: {fileID: 0}
  m_Type: 0
  m_PreserveAspect: 0
  m_FillCenter: 1
  m_FillMethod: 4
  m_FillAmount: 1
  m_FillClockwise: 1
  m_FillOrigin: 0
  m_UseSpriteMesh: 0
--- !u!222 &1798212994
CanvasRenderer:
  m_ObjectHideFlags: 0
  m_CorrespondingSourceObject: {fileID: 0}
  m_PrefabInstance: {fileID: 0}
  m_PrefabAsset: {fileID: 0}
  m_GameObject: {fileID: 1798212991}
  m_CullTransparentMesh: 0
--- !u!1001 &2000167880
PrefabInstance:
  m_ObjectHideFlags: 0
  serializedVersion: 2
  m_Modification:
    m_TransformParent: {fileID: 0}
    m_Modifications:
    - target: {fileID: 5390498342531988462, guid: 749c8060be6fa3d498687104d098daff,
        type: 3}
      propertyPath: m_Name
      value: Volva
      objectReference: {fileID: 0}
    - target: {fileID: 4105037647909379618, guid: 749c8060be6fa3d498687104d098daff,
        type: 3}
      propertyPath: m_LocalPosition.x
      value: 9.2
      objectReference: {fileID: 0}
    - target: {fileID: 4105037647909379618, guid: 749c8060be6fa3d498687104d098daff,
        type: 3}
      propertyPath: m_LocalPosition.y
      value: -5.6
      objectReference: {fileID: 0}
    - target: {fileID: 4105037647909379618, guid: 749c8060be6fa3d498687104d098daff,
        type: 3}
      propertyPath: m_LocalPosition.z
      value: -0.07977189
      objectReference: {fileID: 0}
    - target: {fileID: 4105037647909379618, guid: 749c8060be6fa3d498687104d098daff,
        type: 3}
      propertyPath: m_LocalRotation.x
      value: 0
      objectReference: {fileID: 0}
    - target: {fileID: 4105037647909379618, guid: 749c8060be6fa3d498687104d098daff,
        type: 3}
      propertyPath: m_LocalRotation.y
      value: 0
      objectReference: {fileID: 0}
    - target: {fileID: 4105037647909379618, guid: 749c8060be6fa3d498687104d098daff,
        type: 3}
      propertyPath: m_LocalRotation.z
      value: 0
      objectReference: {fileID: 0}
    - target: {fileID: 4105037647909379618, guid: 749c8060be6fa3d498687104d098daff,
        type: 3}
      propertyPath: m_LocalRotation.w
      value: 1
      objectReference: {fileID: 0}
    - target: {fileID: 4105037647909379618, guid: 749c8060be6fa3d498687104d098daff,
        type: 3}
      propertyPath: m_RootOrder
      value: 9
      objectReference: {fileID: 0}
    - target: {fileID: 4105037647909379618, guid: 749c8060be6fa3d498687104d098daff,
        type: 3}
      propertyPath: m_LocalEulerAnglesHint.x
      value: 0
      objectReference: {fileID: 0}
    - target: {fileID: 4105037647909379618, guid: 749c8060be6fa3d498687104d098daff,
        type: 3}
      propertyPath: m_LocalEulerAnglesHint.y
      value: 0
      objectReference: {fileID: 0}
    - target: {fileID: 4105037647909379618, guid: 749c8060be6fa3d498687104d098daff,
        type: 3}
      propertyPath: m_LocalEulerAnglesHint.z
      value: 0
      objectReference: {fileID: 0}
    - target: {fileID: 4105037647909379618, guid: 749c8060be6fa3d498687104d098daff,
        type: 3}
      propertyPath: m_LocalScale.x
      value: 0.4
      objectReference: {fileID: 0}
    - target: {fileID: 4105037647909379618, guid: 749c8060be6fa3d498687104d098daff,
        type: 3}
      propertyPath: m_LocalScale.y
      value: 0.4
      objectReference: {fileID: 0}
    m_RemovedComponents: []
  m_SourcePrefab: {fileID: 100100000, guid: 749c8060be6fa3d498687104d098daff, type: 3}
--- !u!1001 &2015791534
PrefabInstance:
  m_ObjectHideFlags: 0
  serializedVersion: 2
  m_Modification:
    m_TransformParent: {fileID: 0}
    m_Modifications:
    - target: {fileID: 5390498342531988462, guid: 749c8060be6fa3d498687104d098daff,
        type: 3}
      propertyPath: m_Name
      value: Hersir
      objectReference: {fileID: 0}
    - target: {fileID: 4105037647909379618, guid: 749c8060be6fa3d498687104d098daff,
        type: 3}
      propertyPath: m_LocalPosition.x
      value: 8.13
      objectReference: {fileID: 0}
    - target: {fileID: 4105037647909379618, guid: 749c8060be6fa3d498687104d098daff,
        type: 3}
      propertyPath: m_LocalPosition.y
      value: -14.71
      objectReference: {fileID: 0}
    - target: {fileID: 4105037647909379618, guid: 749c8060be6fa3d498687104d098daff,
        type: 3}
      propertyPath: m_LocalPosition.z
      value: -0.07977189
      objectReference: {fileID: 0}
    - target: {fileID: 4105037647909379618, guid: 749c8060be6fa3d498687104d098daff,
        type: 3}
      propertyPath: m_LocalRotation.x
      value: 0
      objectReference: {fileID: 0}
    - target: {fileID: 4105037647909379618, guid: 749c8060be6fa3d498687104d098daff,
        type: 3}
      propertyPath: m_LocalRotation.y
      value: 0
      objectReference: {fileID: 0}
    - target: {fileID: 4105037647909379618, guid: 749c8060be6fa3d498687104d098daff,
        type: 3}
      propertyPath: m_LocalRotation.z
      value: 0
      objectReference: {fileID: 0}
    - target: {fileID: 4105037647909379618, guid: 749c8060be6fa3d498687104d098daff,
        type: 3}
      propertyPath: m_LocalRotation.w
      value: 1
      objectReference: {fileID: 0}
    - target: {fileID: 4105037647909379618, guid: 749c8060be6fa3d498687104d098daff,
        type: 3}
      propertyPath: m_RootOrder
      value: 20
      objectReference: {fileID: 0}
    - target: {fileID: 4105037647909379618, guid: 749c8060be6fa3d498687104d098daff,
        type: 3}
      propertyPath: m_LocalEulerAnglesHint.x
      value: 0
      objectReference: {fileID: 0}
    - target: {fileID: 4105037647909379618, guid: 749c8060be6fa3d498687104d098daff,
        type: 3}
      propertyPath: m_LocalEulerAnglesHint.y
      value: 0
      objectReference: {fileID: 0}
    - target: {fileID: 4105037647909379618, guid: 749c8060be6fa3d498687104d098daff,
        type: 3}
      propertyPath: m_LocalEulerAnglesHint.z
      value: 0
      objectReference: {fileID: 0}
    - target: {fileID: 4105037647909379618, guid: 749c8060be6fa3d498687104d098daff,
        type: 3}
      propertyPath: m_LocalScale.x
      value: 0.4
      objectReference: {fileID: 0}
    - target: {fileID: 4105037647909379618, guid: 749c8060be6fa3d498687104d098daff,
        type: 3}
      propertyPath: m_LocalScale.y
      value: 0.4
      objectReference: {fileID: 0}
    m_RemovedComponents: []
  m_SourcePrefab: {fileID: 100100000, guid: 749c8060be6fa3d498687104d098daff, type: 3}
--- !u!95 &2036296841 stripped
Animator:
  m_CorrespondingSourceObject: {fileID: 6008600495149904364, guid: 34028025315495e44812ab66c6f66244,
    type: 3}
  m_PrefabInstance: {fileID: 5800565722782760488}
  m_PrefabAsset: {fileID: 0}
--- !u!1 &2210331571534617549 stripped
GameObject:
  m_CorrespondingSourceObject: {fileID: 2210331571534617549, guid: 34028025315495e44812ab66c6f66244,
    type: 3}
  m_PrefabInstance: {fileID: 5800565722782760488}
  m_PrefabAsset: {fileID: 0}
--- !u!114 &2210331571534617550
MonoBehaviour:
  m_ObjectHideFlags: 0
  m_CorrespondingSourceObject: {fileID: 0}
  m_PrefabInstance: {fileID: 0}
  m_PrefabAsset: {fileID: 0}
  m_GameObject: {fileID: 2210331571534617549}
  m_Enabled: 1
  m_EditorHideFlags: 0
  m_Script: {fileID: 11500000, guid: a26d2adae22f2dc458291626d2c7b5ab, type: 3}
  m_Name: 
  m_EditorClassIdentifier: 
  rocketSpeedShift:
    serializedVersion: 2
    m_Curve:
    - serializedVersion: 3
      time: 0
      value: 0
      inSlope: 0
      outSlope: 0
      tangentMode: 0
      weightedMode: 0
      inWeight: 0
      outWeight: 0
    - serializedVersion: 3
      time: 1
      value: 1
      inSlope: 0
      outSlope: 0
      tangentMode: 0
      weightedMode: 0
      inWeight: 0
      outWeight: 0
    m_PreInfinity: 2
    m_PostInfinity: 2
    m_RotationOrder: 4
  rocketSpeed: 0.1
  originPoint: {x: 0, y: 0, z: 0}
  colonisationFlag: {fileID: 5825970617007093615, guid: 7130c452db34b3d4fac132066ad7886a,
    type: 3}
  rotationSpeed: 2
  fuelReserve: 0
  planetsTaken: 0
  rocketStates: {fileID: 2036296841}
--- !u!50 &2210331571534617551
Rigidbody2D:
  serializedVersion: 4
  m_ObjectHideFlags: 0
  m_CorrespondingSourceObject: {fileID: 0}
  m_PrefabInstance: {fileID: 0}
  m_PrefabAsset: {fileID: 0}
  m_GameObject: {fileID: 2210331571534617549}
  m_BodyType: 1
  m_Simulated: 1
  m_UseFullKinematicContacts: 0
  m_UseAutoMass: 0
  m_Mass: 1
  m_LinearDrag: 0
  m_AngularDrag: 0.05
  m_GravityScale: 1
  m_Material: {fileID: 0}
  m_Interpolate: 0
  m_SleepingMode: 1
  m_CollisionDetection: 0
  m_Constraints: 0
--- !u!114 &2210331571534617552
MonoBehaviour:
  m_ObjectHideFlags: 0
  m_CorrespondingSourceObject: {fileID: 0}
  m_PrefabInstance: {fileID: 0}
  m_PrefabAsset: {fileID: 0}
  m_GameObject: {fileID: 2210331571534617549}
  m_Enabled: 1
  m_EditorHideFlags: 0
  m_Script: {fileID: 11500000, guid: 2a702b1b2522ecc4aa7a5a99ecf278a8, type: 3}
  m_Name: 
  m_EditorClassIdentifier: 
--- !u!114 &2210331571534617554
MonoBehaviour:
  m_ObjectHideFlags: 0
  m_CorrespondingSourceObject: {fileID: 0}
  m_PrefabInstance: {fileID: 0}
  m_PrefabAsset: {fileID: 0}
  m_GameObject: {fileID: 2210331571534617549}
  m_Enabled: 1
  m_EditorHideFlags: 0
  m_Script: {fileID: 11500000, guid: 3d202a14f836e674f96dd266cc640371, type: 3}
  m_Name: 
  m_EditorClassIdentifier: 
  numOfPlanets: 16
--- !u!1001 &5800565722782760488
PrefabInstance:
  m_ObjectHideFlags: 0
  serializedVersion: 2
  m_Modification:
    m_TransformParent: {fileID: 0}
    m_Modifications:
    - target: {fileID: 2210331571534617549, guid: 34028025315495e44812ab66c6f66244,
        type: 3}
      propertyPath: m_Name
      value: PlayerShip
      objectReference: {fileID: 0}
    - target: {fileID: 870220713378952370, guid: 34028025315495e44812ab66c6f66244,
        type: 3}
      propertyPath: m_LocalPosition.x
      value: 0
      objectReference: {fileID: 0}
    - target: {fileID: 870220713378952370, guid: 34028025315495e44812ab66c6f66244,
        type: 3}
      propertyPath: m_LocalPosition.y
      value: 0
      objectReference: {fileID: 0}
    - target: {fileID: 870220713378952370, guid: 34028025315495e44812ab66c6f66244,
        type: 3}
      propertyPath: m_LocalPosition.z
      value: -0.01953125
      objectReference: {fileID: 0}
    - target: {fileID: 870220713378952370, guid: 34028025315495e44812ab66c6f66244,
        type: 3}
      propertyPath: m_LocalRotation.x
      value: 0
      objectReference: {fileID: 0}
    - target: {fileID: 870220713378952370, guid: 34028025315495e44812ab66c6f66244,
        type: 3}
      propertyPath: m_LocalRotation.y
      value: 0
      objectReference: {fileID: 0}
    - target: {fileID: 870220713378952370, guid: 34028025315495e44812ab66c6f66244,
        type: 3}
      propertyPath: m_LocalRotation.z
      value: 0
      objectReference: {fileID: 0}
    - target: {fileID: 870220713378952370, guid: 34028025315495e44812ab66c6f66244,
        type: 3}
      propertyPath: m_LocalRotation.w
      value: 1
      objectReference: {fileID: 0}
    - target: {fileID: 870220713378952370, guid: 34028025315495e44812ab66c6f66244,
        type: 3}
      propertyPath: m_RootOrder
      value: 1
      objectReference: {fileID: 0}
    - target: {fileID: 870220713378952370, guid: 34028025315495e44812ab66c6f66244,
        type: 3}
      propertyPath: m_LocalEulerAnglesHint.x
      value: 0
      objectReference: {fileID: 0}
    - target: {fileID: 870220713378952370, guid: 34028025315495e44812ab66c6f66244,
        type: 3}
      propertyPath: m_LocalEulerAnglesHint.y
      value: 0
      objectReference: {fileID: 0}
    - target: {fileID: 870220713378952370, guid: 34028025315495e44812ab66c6f66244,
        type: 3}
      propertyPath: m_LocalEulerAnglesHint.z
      value: 0
      objectReference: {fileID: 0}
    m_RemovedComponents: []
  m_SourcePrefab: {fileID: 100100000, guid: 34028025315495e44812ab66c6f66244, type: 3}
